<svg width="349" height="146" viewBox="0 0 349 146" fill="none" xmlns="http://www.w3.org/2000/svg">
<g id="illu-main--mobile">
<g clip-path="url(#clip0)">
<path id="Vector" d="M178.036 461.847C146.228 444.215 118.615 423.631 96.3548 396.268C94.2347 393.662 92.1147 391.056 89.6881 389.027C72.8422 377.861 61.795 362.374 53.0341 345.881C49.7838 340.454 45.8502 334.665 42.5999 329.239C26.1123 304.202 18.2266 277.813 14.3003 250.567C9.99722 222.38 11.7034 194.425 17.8159 168.069C24.1647 139.619 35.6031 113.132 55.5475 90.4216C73.2759 70.2349 95.2443 55.2601 119.639 42.314C129.397 37.1356 140.216 33.2601 151.717 29.7476C177.689 22.0793 201.848 11.2278 230.387 8.62291C275.824 3.89106 324.503 4.51139 369.626 21.8141C400.847 33.954 428.362 48.3863 453.382 70.5537C456.492 72.9453 460.591 75.1225 464.385 77.877C478.567 89.1092 488.965 108.942 497.656 123.918C502.72 132.528 509.387 139.768 515.747 147.586C538.007 174.949 547.707 204.521 549.487 235.808C550.329 254.016 551.855 272.587 553.38 291.159C553.968 296.651 554.861 301.566 554.082 306.332C549.074 342.155 542.699 377.251 522.423 407.185C518.98 412.018 515.845 416.273 512.026 420.165C504.388 427.949 496.75 435.734 489.418 442.941C478.881 452.886 467.284 461.527 452.2 466.838C445.648 469.278 440.155 473.022 434.287 475.826C371.402 506.814 301.482 508.164 226.268 481.541C209.327 475.504 193.988 468.098 178.036 461.847Z" fill="#FA774E"/>
<g id="Mask Group">
<mask id="mask0" mask-type="alpha" maskUnits="userSpaceOnUse" x="-76" y="-98" width="727" height="691">
<path id="Vector_2" d="M178.036 461.847C146.228 444.215 118.615 423.631 96.3548 396.268C94.2347 393.662 92.1147 391.056 89.6881 389.027C72.8422 377.861 61.795 362.374 53.0341 345.881C49.7838 340.454 45.8502 334.665 42.5999 329.239C26.1123 304.202 18.2266 277.813 14.3003 250.567C9.99722 222.38 11.7034 194.425 17.8159 168.069C24.1647 139.619 35.6031 113.132 55.5475 90.4216C73.2759 70.2349 95.2443 55.2601 119.639 42.314C129.397 37.1356 140.216 33.2601 151.717 29.7476C177.689 22.0793 201.848 11.2278 230.387 8.62291C275.824 3.89106 324.503 4.51139 369.626 21.8141C400.847 33.954 428.362 48.3863 453.382 70.5537C456.492 72.9453 460.591 75.1225 464.385 77.877C478.567 89.1092 488.965 108.942 497.656 123.918C502.72 132.528 509.387 139.768 515.747 147.586C538.007 174.949 547.707 204.521 549.487 235.808C550.329 254.016 551.855 272.587 553.38 291.159C553.968 296.651 554.861 301.566 554.082 306.332C549.074 342.155 542.699 377.251 522.423 407.185C518.98 412.018 515.845 416.273 512.026 420.165C504.388 427.949 496.75 435.734 489.418 442.941C478.881 452.886 467.284 461.527 452.2 466.838C445.648 469.278 440.155 473.022 434.287 475.826C371.402 506.814 301.482 508.164 226.268 481.541C209.327 475.504 193.988 468.098 178.036 461.847Z" fill="#FA774E"/>
</mask>
<g mask="url(#mask0)">
<path id="Vector 8" d="M-32.204 77.399C-15.8371 87.8858 45.1541 127.876 86.6047 86.4254C106.016 67.0144 120.399 50.9966 144.568 50.9966C187.023 50.9966 196.631 92.9218 219.053 117.07C236.702 136.079 266.273 110.516 288.527 110.516C342.274 110.516 348.16 167.009 368.961 170.178" stroke="white" stroke-opacity="0.37" stroke-width="9" stroke-linecap="square"/>
</g>
</g>
<g id="soignant">
<path id="Vector_3" d="M236.392 70.6555C232.862 70.5803 229.557 69.9794 226.402 68.4021C226.102 68.2518 225.801 68.1016 225.501 68.0265C223.548 67.8011 221.896 66.8247 220.393 65.6229C219.868 65.2473 219.267 64.8717 218.741 64.4962C216.187 62.8437 214.309 60.5903 212.732 58.0364C211.079 55.4074 209.953 52.478 209.277 49.4735C208.525 46.2436 208.3 42.9386 208.976 39.5585C209.577 36.554 210.779 33.8499 212.281 31.2209C212.882 30.1693 213.633 29.1928 214.459 28.2164C216.337 26.0381 217.915 23.6344 220.243 21.8317C223.924 18.9023 228.13 17.4 232.787 16.724C236.017 16.2733 239.097 16.2733 242.251 17.1747C242.627 17.2498 243.078 17.2498 243.528 17.3249C245.256 17.7005 246.983 18.0761 248.411 19.1276C249.237 19.7285 250.138 20.1041 251.04 20.5548C254.194 22.1322 256.373 24.6109 257.95 27.6906C258.851 29.4933 259.828 31.296 260.804 33.0987C261.105 33.6245 261.405 34.0752 261.555 34.601C262.757 38.5069 263.809 42.4128 263.433 46.544C263.358 47.2201 263.283 47.821 263.133 48.4219C262.832 49.6237 262.532 50.8255 262.231 51.9522C261.781 53.5296 261.18 55.0319 260.128 56.3839C259.678 56.9848 259.377 57.6608 259.002 58.2617C255.021 64.7966 249.087 68.7025 241.425 70.0546C239.697 70.355 238.045 70.4301 236.392 70.6555Z" fill="white"/>
<path id="Vector_4" d="M212.966 43.2749C212.891 46.1241 213.716 48.8233 214.766 51.5225C215.59 53.6219 216.565 55.4963 218.214 57.2208C220.839 59.995 223.763 62.3193 227.137 64.1937C229.236 65.3934 231.411 66.2931 233.885 66.5181C236.134 66.743 238.384 66.593 240.558 66.2931C247.231 65.3934 252.329 62.3193 255.554 56.621C256.828 54.3716 257.803 51.9723 258.703 49.573C259.527 47.4737 259.752 45.4493 259.227 43.3499C258.853 41.8503 258.403 40.3508 258.178 38.8512C257.878 37.2017 257.128 35.7771 256.303 34.3525C255.703 33.3778 255.104 32.4781 254.654 31.4284C253.079 27.6795 250.155 25.1302 246.256 23.5557C243.707 22.506 240.933 21.9812 238.234 21.5313C237.184 21.3813 236.059 21.3064 235.01 21.3813C231.636 21.6063 228.486 22.2811 225.412 23.6307C223.238 24.6054 221.439 25.88 219.939 27.6795C219.114 28.7292 218.364 29.7789 217.465 30.7536C214.166 34.3525 213.116 38.7012 212.966 43.2749Z" fill="#44C2BB"/>
<g id="Group">
<path id="Vector_5" d="M231.282 46.1688C232.109 46.6946 236.54 47.6711 236.991 47.5959C237.892 47.5959 242.174 46.4692 242.925 45.4177C243.451 44.7416 244.953 42.5633 245.178 41.7371C245.479 40.3851 245.103 35.4276 245.028 34.9018C244.953 34.376 244.577 33.3995 244.352 32.9488C242.775 30.3199 240.747 29.1931 237.817 28.442C237.216 28.2918 236.69 28.2167 236.09 28.2167C234.061 28.2167 230.531 29.8692 229.404 31.1461C228.578 32.0475 227.151 34.5262 227.151 34.9769C227.001 37.9063 227.677 40.9108 229.104 43.4647C229.63 44.5914 230.306 45.5679 231.282 46.1688Z" fill="#F9F6F4"/>
<path id="Vector_6" d="M255.168 57.4356C255.168 57.3605 255.168 57.3605 255.093 57.2854C254.192 55.2573 252.69 53.68 252.389 53.0039C250.436 51.4266 249.61 51.5768 245.779 50.5252C240.747 49.9243 233.31 50.375 228.578 51.2012C226.475 51.5017 224.973 52.1026 224.973 52.1026C224.973 52.1026 221.743 53.0039 219.565 54.9569C219.039 55.4076 218.588 56.2338 218.213 57.2854C218.213 57.2854 218.213 57.2854 218.288 57.3605C220.917 60.1397 223.846 62.4682 227.226 64.3461C229.329 65.5479 231.508 66.4492 233.986 66.6746C236.24 66.8999 238.493 66.7497 240.672 66.4492C246.981 65.5479 251.863 62.6936 255.168 57.4356Z" fill="#F9F6F4"/>
</g>
<path id="Union" d="M245.202 50.9543C245.439 50.1959 245.016 49.3889 244.258 49.1519C243.499 48.9149 242.693 49.3376 242.456 50.096L242.117 51.1802L240.732 53.8808C239.932 54.9126 239.198 56.0769 238.257 56.9841C238.038 57.1953 237.737 57.4801 237.409 57.7768C237.078 58.0754 236.732 58.3756 236.419 58.6223C236.222 58.7772 236.069 58.8868 235.959 58.9588C235.813 58.961 235.63 58.9591 235.439 58.9548L235.391 58.9537L231.962 53.6493L231.341 50.6811C231.178 49.9034 230.416 49.4049 229.638 49.5676C228.86 49.7304 228.362 50.4929 228.525 51.2706L229.201 54.5005C229.237 54.6735 229.305 54.8383 229.401 54.9867L233.382 61.146C233.653 61.5655 234.106 61.7834 234.595 61.8055L234.607 61.806C234.66 62.472 234.735 63.3335 234.829 64.2652C235.034 66.2934 235.343 68.8001 235.757 70.2896C235.782 70.3787 235.815 70.4652 235.856 70.5479C236.444 71.724 237.369 73.3587 238.436 74.8055C238.97 75.5289 239.561 76.2344 240.185 76.818C240.794 77.3872 241.522 77.9227 242.336 78.1846C242.367 78.1943 242.397 78.203 242.428 78.2107C243.946 78.5903 244.98 78.8203 245.641 78.9565C245.972 79.0246 246.211 79.0694 246.37 79.0977C246.595 79.1375 246.816 79.1646 247.045 79.1408C247.088 79.1362 247.15 79.1295 247.228 79.1205C247.386 79.1026 247.61 79.0757 247.884 79.0391C248.431 78.9662 249.183 78.854 249.997 78.6971C250.807 78.541 251.702 78.3361 252.529 78.0734C253.315 77.8235 254.16 77.4847 254.805 77.0096L257.411 75.2223L255.784 72.8492C254.893 73.4598 253.969 74.0397 253.105 74.6875C252.852 74.8778 252.367 75.1057 251.657 75.3311C250.977 75.5473 250.201 75.7273 249.452 75.8717C248.708 76.0152 248.013 76.119 247.504 76.1869C247.25 76.2208 247.044 76.2455 246.903 76.2616L246.875 76.2648L246.873 76.2645C246.742 76.2412 246.529 76.2015 246.222 76.1381C245.614 76.013 244.637 75.7963 243.182 75.4331C242.945 75.3477 242.596 75.1323 242.15 74.7158C241.697 74.2923 241.222 73.735 240.751 73.097C239.846 71.8706 239.034 70.4537 238.494 69.3888C238.172 68.1475 237.893 65.9699 237.692 63.9763C237.593 62.9912 237.515 62.0843 237.462 61.4131C237.721 61.249 237.976 61.0586 238.2 60.8825C238.584 60.5799 238.983 60.2322 239.339 59.9112C239.696 59.5882 240.02 59.2814 240.253 59.056C240.371 58.943 240.466 58.8498 240.533 58.7843L240.61 58.7076L240.64 58.6783C240.683 58.6355 240.723 58.5901 240.76 58.5423L243.088 55.5377C243.143 55.4674 243.191 55.3921 243.231 55.3129L244.733 52.3835C244.771 52.3105 244.802 52.2344 244.826 52.1561L245.202 50.9543Z" fill="#6A778A"/>
<path id="Vector_7" d="M253.152 68.8497C253.152 68.8497 252.477 72.0539 253.742 74.9208C255.428 77.3661 257.199 78.4623 261.078 78.2936C264.957 78.125 266.727 75.9327 267.739 74.0776C268.077 72.1382 267.824 68.7654 267.233 67.3319C265.884 65.1396 265.041 64.1277 262.427 63.8748C259.813 63.6218 258.042 63.8748 256.187 64.8023C254.332 66.1515 253.152 68.8497 253.152 68.8497Z" fill="#D2DDDC"/>
<path id="Vector_8" d="M257.536 67.5853C257.536 67.5853 256.103 69.8619 256.356 71.717C256.862 73.572 257.368 74.3309 259.56 74.9212C261.753 75.5114 262.849 74.9212 263.945 73.6564C264.451 72.6445 265.378 71.464 264.957 69.8619C264.619 68.4285 263.017 67.248 261.584 66.742C259.392 66.5734 257.536 67.5853 257.536 67.5853Z" fill="#6A778A"/>
</g>
<g id="hopital">
<path id="Union_2" fill-rule="evenodd" clip-rule="evenodd" d="M15.1131 55.4395C15.1742 55.3328 15.2365 55.2266 15.2999 55.1208C15.6514 54.5586 16.0731 53.9963 16.4947 53.5043C16.8269 53.1278 17.1382 52.7374 17.4483 52.3483C18.1224 51.5028 18.791 50.6641 19.6575 49.9902C21.6957 48.3736 24.015 47.5303 26.5452 47.1788C28.3023 46.8977 29.9891 46.968 31.7462 47.46C31.8516 47.4951 31.9746 47.4951 32.0976 47.4951C32.2206 47.4951 32.3436 47.4951 32.449 47.5303C32.4845 47.5384 32.5201 47.5466 32.5558 47.5549C33.4389 47.758 34.3767 47.9738 35.1198 48.5142C35.4401 48.7812 35.8416 48.967 36.2009 49.1333C36.3146 49.186 36.4241 49.2366 36.5254 49.2873C38.2825 50.201 39.4773 51.5364 40.3207 53.2232C40.5667 53.7152 40.8303 54.2072 41.0938 54.6991C41.1427 54.7903 41.1915 54.8815 41.2402 54.9726C47.1541 55.0361 52.8259 55.2188 53.3231 55.6828C54.0721 56.382 54.147 57.2585 54.2285 58.2116C54.2617 58.5999 54.2959 59.0009 54.3773 59.4078C54.5179 59.9701 55.5018 75.4324 55.291 78.806L55.783 92.9329L56.1344 106.498C55.9235 108.887 55.8533 111.206 55.9235 113.596C55.9235 113.678 55.9274 113.789 55.932 113.918C55.9547 114.569 55.9941 115.693 55.6424 115.986C55.4842 116.104 54.9252 116.134 54.3915 116.162C53.977 116.184 53.5777 116.205 53.3933 116.267C53.0419 116.407 52.6905 116.407 52.3391 116.407H46.857C46.857 116.407 41.8669 116.618 36.174 116.829C36.2279 114.671 36.1162 110.608 36.0614 108.614C36.0448 108.01 36.0334 107.596 36.0334 107.481C36.0334 106.568 36.0334 105.584 35.9631 104.67C35.9631 104.389 35.9631 104.108 35.8929 103.827C35.7523 103.264 35.4009 103.194 35.0495 103.124C34.8007 103.088 34.5159 103.107 34.2407 103.125C33.9717 103.142 33.7117 103.159 33.5032 103.124C32.9607 103.079 32.0983 103.121 31.3649 103.156C30.9582 103.176 30.5912 103.194 30.3405 103.194C29.7079 103.194 29.1281 103.247 28.5483 103.3C27.9684 103.352 27.3886 103.405 26.7561 103.405C26.6603 103.405 26.5593 103.402 26.4555 103.4C26.0259 103.388 25.5495 103.376 25.2098 103.546C25.0792 103.611 24.9621 103.636 24.8584 103.658C24.6274 103.707 24.4635 103.742 24.3664 104.178C24.2575 104.778 24.2752 105.842 24.2887 106.65C24.2926 106.884 24.2961 107.097 24.2961 107.271C24.2961 108.028 24.3058 108.61 24.3144 109.126C24.329 109.999 24.3403 110.682 24.2961 111.698C24.2961 111.933 24.2865 112.505 24.2744 113.225C24.2537 114.448 24.2259 116.1 24.2259 117.251C22.9915 117.251 22.0137 117.283 21.3791 117.304C21.0742 117.314 20.8486 117.321 20.7117 117.321C19.4466 117.321 15.581 117.321 14.1051 117.602C13.8293 117.648 12.6815 117.574 11.8024 117.517C11.3375 117.487 10.9477 117.462 10.8018 117.462C10.6637 117.462 10.5182 117.477 10.37 117.492C10.0655 117.524 9.75006 117.556 9.46642 117.462C9.10916 117.343 8.56275 117.324 7.99811 117.306C7.22976 117.28 6.42766 117.253 6.02254 116.97C5.6477 115.892 5.52275 114.439 5.39781 112.987C5.33533 112.261 5.27286 111.534 5.17915 110.855C5.15979 110.662 5.12978 110.084 5.09057 109.33C4.98741 107.346 4.8206 104.137 4.61688 103.475C4.5466 102.983 4.61688 101.297 4.68717 100.945C4.7077 100.76 4.66825 100.102 4.61438 99.2023C4.48384 97.0229 4.26862 93.4296 4.61688 91.7381L4.05462 69.6692C4.05462 69.4567 4.02249 69.0257 3.9835 68.5026C3.89352 67.2955 3.76695 65.5976 3.91405 64.9602C4.04624 64.3522 4.10881 63.0281 4.17659 61.5941C4.28899 59.2157 4.4157 56.5346 4.89801 56.3154C6.01952 55.8668 6.91733 55.7761 7.80561 55.6864C8.03068 55.6636 8.25513 55.641 8.48245 55.6125L10.5207 55.5423C11.7299 55.8577 12.9784 55.7012 14.2368 55.5435C14.5285 55.507 14.8207 55.4703 15.1131 55.4395Z" fill="#4CBBEB"/>
<path id="Vector_9" d="M28.5133 74.6593C26.967 74.6593 25.5614 74.3782 24.226 73.6051C24.0854 73.5348 23.9449 73.4645 23.8043 73.4645C22.8906 73.3942 22.1878 72.9022 21.5552 72.34C21.3444 72.1291 21.0633 71.9885 20.8524 71.848C19.7279 71.0749 18.9548 70.0206 18.2519 68.8258C17.5491 67.5607 17.0571 66.2253 16.776 64.8197C16.4949 63.3437 16.3543 61.7975 16.6354 60.181C16.9166 58.7753 17.4085 57.5102 18.0411 56.3154C18.3222 55.8234 18.6033 55.3315 18.9548 54.9098C19.7982 53.9258 20.4307 52.8013 21.485 51.9579C23.1015 50.6225 24.9288 49.8494 26.8967 49.5682C28.3024 49.3574 29.6378 49.3574 30.9732 49.7791C31.1137 49.8494 31.3246 49.7791 31.5354 49.8494C32.3085 49.9899 33.0114 50.2008 33.6439 50.6928C33.9953 50.9739 34.417 51.1848 34.7685 51.3956C36.1038 52.1687 37.0878 53.2932 37.7906 54.6989C38.2123 55.5423 38.634 56.3857 39.0557 57.2291C39.1963 57.4399 39.3369 57.7211 39.4071 57.9319C39.9694 59.7593 40.3911 61.5867 40.2505 63.4843C40.2505 63.7654 40.1803 64.1168 40.11 64.398C39.9694 64.9602 39.8288 65.5225 39.6883 66.0145C39.4774 66.7173 39.2666 67.4201 38.7746 68.0527C38.5637 68.3338 38.4232 68.615 38.2826 68.9664C36.5255 71.9885 33.9953 73.8159 30.692 74.4485C29.9189 74.5187 29.2161 74.589 28.5133 74.6593Z" fill="white"/>
<path id="Vector_10" d="M40.1793 79.7904C40.601 79.6498 41.2335 79.7201 41.7255 79.7201C42.9906 79.7201 44.0448 79.5796 45.3099 79.5796C46.0128 79.5796 47.6293 79.5093 48.4727 79.5093C48.8944 79.5093 49.5269 79.5093 50.0189 79.5093C50.3703 79.5093 50.7217 79.5796 50.8623 79.8607C50.9326 80.0013 50.9326 80.1418 50.9326 80.2824C51.0029 80.7744 51.0029 81.2664 51.0029 81.7583C51.0029 82.0395 51.284 85.8348 51.1434 87.0999C51.1434 87.3107 50.9326 87.4513 50.792 87.5215C50.5812 87.6621 50.3703 87.6621 50.1595 87.6621C49.1755 87.7324 48.3321 87.7324 47.4184 87.7324C46.9967 87.7324 46.0128 87.8027 44.2557 87.8027C43.9043 87.8027 43.2717 87.8027 42.9203 87.8027C42.4986 87.873 41.9363 87.873 41.5146 87.873C41.0929 87.873 40.109 87.873 39.6873 87.7324C39.5467 87.6621 39.4062 87.2404 39.3359 87.0999C39.2656 86.4673 39.1953 84.4291 39.1953 84.0074C39.2656 83.164 39.1953 82.7423 39.1953 81.6881C39.1953 81.2664 39.125 80.4932 39.2656 80.0715C39.4764 79.7904 39.8279 79.8607 40.1793 79.7904Z" fill="white"/>
<path id="Vector_11" d="M25.1408 79.7904C25.5625 79.6498 26.1951 79.7201 26.687 79.7201C27.9521 79.7201 29.0064 79.5796 30.2715 79.5796C30.9743 79.5796 32.5908 79.5093 33.4342 79.5093C33.8559 79.5093 34.4885 79.5093 34.9805 79.5093C35.3319 79.5093 35.6833 79.5796 35.8238 79.8607C35.8941 80.0013 35.8941 80.1418 35.8941 80.2824C35.9644 80.7744 35.9644 81.2664 35.9644 81.7583C35.9644 82.0395 36.2455 85.8348 36.105 87.0999C36.105 87.3107 35.8941 87.4513 35.7536 87.5215C35.5427 87.6621 35.3319 87.6621 35.121 87.6621C34.1371 87.7324 33.2937 87.7324 32.38 87.7324C31.9583 87.7324 30.9743 87.8027 29.2172 87.8027C28.8658 87.8027 28.2333 87.8027 27.8819 87.8027C27.4602 87.873 26.8979 87.873 26.4762 87.873C26.0545 87.873 25.0705 87.873 24.6488 87.7324C24.5083 87.6621 24.3677 87.2404 24.2974 87.0999C24.2271 86.4673 24.1569 84.4291 24.1569 84.0074C24.2271 83.164 24.1569 82.7423 24.1569 81.6881C24.1569 81.2664 24.0866 80.4932 24.2271 80.0715C24.5083 79.7904 24.7894 79.8607 25.1408 79.7904Z" fill="white"/>
<path id="Vector_12" d="M9.81837 79.7904C10.2401 79.6498 10.8726 79.7201 11.3646 79.7201C12.6297 79.7201 13.6839 79.5796 14.949 79.5796C15.6519 79.5796 17.2684 79.5093 18.1118 79.5093C18.5335 79.5093 19.166 79.5093 19.658 79.5093C20.0094 79.5093 20.3608 79.5796 20.5014 79.8607C20.5717 80.0013 20.5717 80.1418 20.5717 80.2824C20.642 80.7744 20.642 81.2664 20.642 81.7583C20.642 82.0395 20.9231 85.8348 20.7825 87.0999C20.7825 87.3107 20.5717 87.4513 20.4311 87.5215C20.2203 87.6621 20.0094 87.6621 19.7986 87.6621C18.8146 87.7324 17.9712 87.7324 17.0575 87.7324C16.6358 87.7324 15.6519 87.8027 13.8948 87.8027C13.5434 87.8027 12.9108 87.8027 12.5594 87.8027C12.1377 87.873 11.5754 87.873 11.1537 87.873C10.732 87.873 9.74808 87.873 9.32639 87.7324C9.18582 87.6621 9.04525 87.2404 8.97497 87.0999C8.90469 86.4673 8.8344 84.4291 8.8344 84.0074C8.90469 83.164 8.8344 82.7423 8.8344 81.6881C8.8344 81.2664 8.76412 80.4932 8.90469 80.0715C9.11554 79.7904 9.39667 79.8607 9.81837 79.7904Z" fill="white"/>
<path id="Vector_13" d="M40.1793 90.3325C40.601 90.1919 41.2335 90.2622 41.7255 90.2622C42.9906 90.2622 44.0448 90.1216 45.3099 90.1216C46.0128 90.1216 47.6293 90.0513 48.4727 90.0513C48.8944 90.0513 49.5269 90.0513 50.0189 90.0513C50.3703 90.0513 50.7217 90.1216 50.8623 90.4027C50.9326 90.5433 50.9326 90.6839 50.9326 90.8244C51.0029 91.3164 51.0029 91.8084 51.0029 92.3004C51.0029 92.5815 51.284 96.3768 51.1434 97.6419C51.1434 97.8527 50.9326 97.9933 50.792 98.0636C50.5812 98.2042 50.3703 98.2042 50.1595 98.2042C49.1755 98.2745 48.3321 98.2744 47.4184 98.2744C46.9967 98.2744 46.0128 98.3447 44.2557 98.3447C43.9043 98.3447 43.2717 98.3447 42.9203 98.3447C42.4986 98.415 41.9363 98.415 41.5146 98.415C41.0929 98.415 40.109 98.415 39.6873 98.2744C39.5467 98.2042 39.4062 97.7825 39.3359 97.6419C39.2656 97.0094 39.1953 94.9711 39.1953 94.5494C39.2656 93.7061 39.1953 93.2844 39.1953 92.2301C39.1953 91.8084 39.125 91.0353 39.2656 90.6136C39.4764 90.3325 39.8279 90.4027 40.1793 90.3325Z" fill="white"/>
<path id="Vector_14" d="M25.1408 90.3325C25.5625 90.1919 26.1951 90.2622 26.687 90.2622C27.9521 90.2622 29.0064 90.1216 30.2715 90.1216C30.9743 90.1216 32.5908 90.0513 33.4342 90.0513C33.8559 90.0513 34.4885 90.0513 34.9805 90.0513C35.3319 90.0513 35.6833 90.1216 35.8238 90.4027C35.8941 90.5433 35.8941 90.6839 35.8941 90.8244C35.9644 91.3164 35.9644 91.8084 35.9644 92.3004C35.9644 92.5815 36.2455 96.3768 36.105 97.6419C36.105 97.8527 35.8941 97.9933 35.7536 98.0636C35.5427 98.2042 35.3319 98.2042 35.121 98.2042C34.1371 98.2745 33.2937 98.2744 32.38 98.2744C31.9583 98.2744 30.9743 98.3447 29.2172 98.3447C28.8658 98.3447 28.2333 98.3447 27.8819 98.3447C27.4602 98.415 26.8979 98.415 26.4762 98.415C26.0545 98.415 25.0705 98.415 24.6488 98.2744C24.5083 98.2042 24.3677 97.7825 24.2974 97.6419C24.2271 97.0094 24.1569 94.9711 24.1569 94.5494C24.2271 93.7061 24.1569 93.2844 24.1569 92.2301C24.1569 91.8084 24.0866 91.0353 24.2271 90.6136C24.5083 90.3325 24.7894 90.4027 25.1408 90.3325Z" fill="white"/>
<path id="Vector_15" d="M9.81837 90.3325C10.2401 90.1919 10.8726 90.2622 11.3646 90.2622C12.6297 90.2622 13.6839 90.1216 14.949 90.1216C15.6519 90.1216 17.2684 90.0513 18.1118 90.0513C18.5335 90.0513 19.166 90.0513 19.658 90.0513C20.0094 90.0513 20.3608 90.1216 20.5014 90.4027C20.5717 90.5433 20.5717 90.6839 20.5717 90.8244C20.642 91.3164 20.642 91.8084 20.642 92.3004C20.642 92.5815 20.9231 96.3768 20.7825 97.6419C20.7825 97.8527 20.5717 97.9933 20.4311 98.0636C20.2203 98.2042 20.0094 98.2042 19.7986 98.2042C18.8146 98.2745 17.9712 98.2744 17.0575 98.2744C16.6358 98.2744 15.6519 98.3447 13.8948 98.3447C13.5434 98.3447 12.9108 98.3447 12.5594 98.3447C12.1377 98.415 11.5754 98.415 11.1537 98.415C10.732 98.415 9.74808 98.415 9.32639 98.2744C9.18582 98.2042 9.04525 97.7825 8.97497 97.6419C8.90469 97.0094 8.8344 94.9711 8.8344 94.5494C8.90469 93.7061 8.8344 93.2844 8.8344 92.2301C8.8344 91.8084 8.76412 91.0353 8.90469 90.6136C9.11554 90.3325 9.39667 90.4027 9.81837 90.3325Z" fill="white"/>
<path id="Vector_16" d="M40.1793 101.648C40.601 101.507 41.2335 101.578 41.7255 101.578C42.9906 101.578 44.0448 101.437 45.3099 101.437C46.0128 101.437 47.6293 101.367 48.4727 101.367C48.8944 101.367 49.5269 101.367 50.0189 101.367C50.3703 101.367 50.7217 101.437 50.8623 101.718C50.9326 101.859 50.9326 101.999 50.9326 102.14C51.0029 102.632 51.0029 103.124 51.0029 103.616C51.0029 103.897 51.284 107.692 51.1434 108.957C51.1434 109.168 50.9326 109.309 50.792 109.379C50.5812 109.52 50.3703 109.52 50.1595 109.52C49.1755 109.59 48.3321 109.59 47.4184 109.59C46.9967 109.59 46.0128 109.66 44.2557 109.66C43.9043 109.66 43.2717 109.66 42.9203 109.66C42.4986 109.731 41.9363 109.731 41.5146 109.731C41.0929 109.731 40.109 109.731 39.6873 109.59C39.5467 109.52 39.4062 109.098 39.3359 108.957C39.2656 108.325 39.1953 106.287 39.1953 105.865C39.2656 105.022 39.1953 104.6 39.1953 103.546C39.1953 103.124 39.125 102.351 39.2656 101.929C39.4764 101.648 39.8279 101.789 40.1793 101.648Z" fill="white"/>
<path id="Vector_17" d="M9.81743 101.648C10.2391 101.507 10.8717 101.578 11.3637 101.578C12.6287 101.578 13.683 101.437 14.9481 101.437C15.6509 101.437 17.2674 101.367 18.1108 101.367C18.5325 101.367 19.1651 101.367 19.6571 101.367C20.0085 101.367 20.3599 101.437 20.5005 101.718C20.5707 101.859 20.5707 101.999 20.5707 102.14C20.641 102.632 20.641 103.124 20.641 103.616C20.641 103.897 20.9222 107.692 20.7816 108.957C20.7816 109.168 20.5707 109.309 20.4302 109.379C20.2193 109.52 20.0085 109.52 19.7976 109.52C18.8137 109.59 17.9703 109.59 17.0566 109.59C16.6349 109.59 15.6509 109.66 13.8938 109.66C13.5424 109.66 12.9099 109.66 12.5585 109.66C12.1368 109.731 11.5745 109.731 11.1528 109.731C10.7311 109.731 9.74714 109.731 9.32544 109.59C9.18488 109.52 9.04431 109.098 8.97403 108.957C8.90375 108.465 8.83346 106.427 8.90375 105.935C8.97403 105.092 8.90375 104.67 8.90375 103.616C8.90375 103.194 8.83346 102.421 8.97403 101.999C9.1146 101.648 9.39573 101.789 9.81743 101.648Z" fill="white"/>
<g id="Group_2">
<g id="Group_3">
<g id="Group_4">
<g id="Group_5">
<g id="Group_6">
<path id="Vector_18" d="M24.6468 69.1084C24.2953 69.1084 23.7331 69.0382 23.5222 68.8976C23.4519 68.8273 23.1708 68.6867 23.1005 68.265C23.0302 67.9136 23.0302 67.4919 23.0302 67.1405V66.8594C23.0302 66.4377 23.0302 66.016 23.0302 65.5943C23.0302 65.1726 23.0302 64.6806 23.0302 64.2589C23.0302 64.0481 23.0302 63.9075 23.0302 63.6966V63.4155C23.0302 62.2207 22.96 60.6042 22.96 60.6042C22.96 60.4636 22.96 60.3933 22.96 60.2528C22.96 60.1825 22.96 60.0419 22.96 59.9716C22.96 59.5499 22.96 59.1985 22.96 58.8471C22.96 58.4957 22.96 58.074 22.96 57.6523C22.96 57.2306 22.96 56.6683 23.0302 56.1061C23.0302 55.9655 23.1005 55.8952 23.1005 55.7546C23.3114 55.1924 23.8736 55.1221 24.3656 55.0518H24.5062C24.5765 55.0518 24.5765 55.0518 24.6468 55.0518C25.4902 55.0518 25.8416 55.1221 26.0524 55.4735C26.1227 55.5438 26.193 55.6141 26.193 55.6844C26.2633 55.8249 26.2633 55.9655 26.2633 56.0358C26.3335 56.6683 26.3335 57.3009 26.3335 57.8631C26.3335 58.1443 26.3335 58.3551 26.3335 58.6363C26.3335 58.9174 26.3335 58.9877 26.3335 59.1282V59.2688C26.3335 59.4094 26.3335 59.5499 26.3335 59.6905C26.3335 59.9014 26.3335 60.1825 26.3335 60.3231L26.4038 61.6584C26.4038 61.8693 26.4038 62.4315 26.4741 62.7127C26.4741 62.9235 26.4741 63.1344 26.4741 63.1344C26.4741 63.4858 26.4741 63.8372 26.4741 64.1886C26.4741 64.4698 26.4741 64.7509 26.4741 64.9617C26.4741 65.5943 26.4741 66.016 26.4038 66.508C26.4038 66.7188 26.4038 66.9297 26.3335 67.2108C26.3335 67.4919 26.3335 67.8433 26.2633 68.0542V68.1948C26.193 68.4056 26.193 68.6165 26.0524 68.757C25.701 69.0382 25.3496 69.0382 25.0685 69.0382H24.9982C24.9279 69.0382 24.8576 69.0382 24.7873 69.0382C24.7873 69.1084 24.717 69.1084 24.6468 69.1084Z" fill="#6A778A"/>
</g>
</g>
</g>
</g>
<g id="Group_7">
<g id="Group_8">
<g id="Group_9">
<g id="Group_10">
<path id="Vector_19" d="M32.2367 69.1072C31.8853 69.1072 31.323 69.0369 31.1122 68.8963C31.0419 68.8261 30.7608 68.6855 30.6905 68.2638C30.6202 67.9124 30.6202 67.4907 30.6202 67.069V66.7878C30.6202 66.3661 30.6202 65.9444 30.6202 65.5227C30.6202 65.101 30.6202 64.6091 30.6202 64.1874C30.6202 63.9765 30.6202 63.836 30.6202 63.6251V63.344C30.6202 62.1492 30.5499 60.5326 30.5499 60.5326C30.5499 60.3921 30.5499 60.3218 30.5499 60.1812C30.5499 60.111 30.5499 59.9704 30.5499 59.9001C30.5499 59.4784 30.5499 59.127 30.5499 58.7756C30.5499 58.4242 30.5499 58.0025 30.5499 57.5808C30.5499 57.1591 30.5499 56.5968 30.6202 56.0345C30.6202 55.894 30.6905 55.8237 30.6905 55.6831C30.9013 55.1209 31.4636 55.0506 31.9556 54.9803H32.0962C32.9395 54.9803 33.3612 54.9803 33.6424 55.402C33.7127 55.4723 33.7829 55.5426 33.7829 55.6128C33.8532 55.7534 33.8532 55.894 33.8532 55.9642C33.9235 56.5968 33.9235 57.2293 33.9235 57.7916C33.9235 58.0727 33.9235 58.2836 33.9235 58.5647C33.9235 58.8459 33.9235 58.9161 33.9235 59.0567V59.1973C33.9235 59.3378 33.9235 59.4784 33.9235 59.619C33.9235 59.8298 33.9235 60.111 33.9235 60.2515L33.9938 61.5869C33.9938 61.7977 33.9938 62.36 34.0641 62.6411C34.0641 62.852 34.0641 63.0628 34.0641 63.0628C34.0641 63.4143 34.0641 63.7657 34.0641 64.1171C34.0641 64.3982 34.0641 64.6794 34.0641 64.8902C34.0641 65.5227 34.0641 65.9444 33.9938 66.4364C33.9938 66.6473 33.9938 66.8581 33.9235 67.1393C33.9235 67.4204 33.9235 67.7718 33.8532 67.9827V68.1232C33.7829 68.3341 33.7829 68.5449 33.6424 68.6855C33.291 68.9666 32.9396 68.8963 32.6584 68.9666C32.5881 68.9666 32.4476 68.9666 32.3773 68.9666C32.3773 69.1072 32.307 69.1072 32.2367 69.1072Z" fill="#6A778A"/>
</g>
</g>
</g>
</g>
<g id="Group_11">
<path id="Vector_20" d="M31.044 63.6251C30.9737 63.6251 30.9034 63.6251 30.8332 63.6251H28.5138H28.3732L26.1242 63.5548C25.7728 63.5548 25.2808 63.5548 24.7888 63.4845C24.6482 63.4845 24.578 63.4142 24.5077 63.344C24.086 63.1331 23.6643 62.7817 23.594 61.9383C23.594 61.4463 23.7346 60.9543 24.0157 60.6029C24.1563 60.4623 24.2968 60.3921 24.3671 60.3218C24.5077 60.2515 24.6482 60.2515 24.7185 60.2515C25.2808 60.1812 25.9133 60.1812 26.4756 60.1812C26.6864 60.1812 26.8973 60.1812 27.1081 60.1812C27.319 60.1812 27.3893 60.1812 27.5298 60.1812H27.6704L29.8492 60.2515C30.1303 60.2515 30.4115 60.2515 30.6223 60.3218C30.7629 60.3218 30.9737 60.3218 31.1846 60.3921H31.3251C31.536 60.3921 31.7468 60.3921 32.028 60.4623C32.0982 60.4623 32.0982 60.4623 32.1685 60.4623C32.3091 60.4623 32.5902 60.5326 32.8011 60.8138C33.0119 61.1652 33.1525 61.5166 33.2228 61.9383C33.2228 62.2897 33.1525 62.6411 33.0119 62.9925C32.8011 63.344 32.5199 63.5548 32.1685 63.6251C31.7468 63.6251 31.3954 63.6251 31.044 63.6251Z" fill="#6A778A"/>
</g>
</g>
</g>
<g id="Group_12">
<path id="Union_3" fill-rule="evenodd" clip-rule="evenodd" d="M153.085 103.843C151.882 104.863 150.745 106.359 150.745 106.359C150.745 106.359 150.737 106.394 150.727 106.445C150.532 106.742 150.54 107.6 150.547 108.385C150.553 108.971 150.558 109.517 150.478 109.76C150.383 110 150.455 110.644 150.506 111.1C150.527 111.291 150.544 111.449 150.544 111.529L150.745 119.623C150.568 120.209 150.655 121.42 150.714 122.25C150.744 122.675 150.768 123 150.745 123.092C150.678 123.228 150.678 123.841 150.745 124.045C150.858 124.388 150.828 125.983 150.816 126.643C150.814 126.767 150.812 126.858 150.812 126.901C150.852 127.127 150.874 127.384 150.897 127.641C150.948 128.238 151 128.84 151.28 129.078C151.509 129.218 151.769 129.23 152.104 129.246C152.258 129.253 152.428 129.261 152.617 129.282H153.487C153.687 129.282 153.955 129.282 154.155 129.214C154.675 129.17 156.177 129.24 157.352 129.295C157.991 129.325 158.534 129.35 158.769 129.35H160.174C160.107 129.146 160.107 128.942 160.107 128.806C160.04 128.126 160.04 125.745 160.04 125.269C160.082 124.671 160.071 124.26 160.057 123.734C160.049 123.423 160.04 123.071 160.04 122.616C160.04 122.14 160.04 121.256 160.107 120.78C160.153 120.498 160.231 120.475 160.341 120.444C160.39 120.43 160.446 120.414 160.508 120.372C160.657 120.27 160.844 120.282 161.041 120.295C161.108 120.299 161.175 120.304 161.243 120.304C161.544 120.304 161.812 120.269 162.079 120.235C162.347 120.201 162.614 120.167 162.915 120.167C163.075 120.167 163.326 120.152 163.588 120.136C163.875 120.118 164.176 120.099 164.386 120.099C164.449 120.099 164.518 120.093 164.591 120.086C164.754 120.07 164.938 120.053 165.122 120.099C165.322 120.099 165.456 120.167 165.523 120.508C165.59 120.644 165.59 120.848 165.59 120.984V120.984C165.59 121.528 165.59 122.14 165.657 122.684C165.657 122.76 165.663 123.03 165.673 123.421C165.706 124.788 165.776 127.627 165.724 128.738C165.724 128.942 165.657 129.078 165.59 129.214L167.128 129.146C170.137 129.078 171.875 129.01 171.875 129.01H174.751H174.751C174.951 129.01 175.152 129.01 175.286 128.942C175.386 128.908 175.553 128.857 175.72 128.806C175.888 128.755 176.055 128.704 176.155 128.67C176.356 128.534 176.489 127.922 176.489 127.718C176.518 127.308 176.51 126.899 176.502 126.495C176.491 125.959 176.48 125.433 176.556 124.929L176.489 120.099L176.423 114.726C176.556 114.046 176.423 107.652 176.356 107.448C176.309 107.256 176.295 107.056 176.282 106.872C176.276 106.788 176.27 106.707 176.262 106.632C176.28 106.632 176.289 106.632 176.289 106.632L176.249 106.538C176.227 106.4 176.189 106.287 176.113 106.214L176.088 106.155C176.088 106.155 175.286 105.339 174.818 104.999C174.283 104.727 173.28 103.435 173.28 103.435C173.28 103.435 172.21 102.278 171.742 101.87C171.357 101.534 171.198 101.337 170.967 101.05C170.918 100.988 170.865 100.922 170.806 100.85C170.627 100.623 170.211 100.306 169.914 100.079C169.765 99.9656 169.647 99.875 169.602 99.8296C169.539 99.7653 168.698 99.1535 167.787 98.4903C166.771 97.751 165.668 96.948 165.456 96.7687C165.36 96.6873 165.264 96.6097 165.171 96.5351C164.878 96.2983 164.622 96.0914 164.52 95.8845C164.386 95.6124 163.316 95.3403 163.183 95.3403C163.049 95.3403 162.581 95.6804 162.581 95.6804C162.581 95.6804 161.243 96.4286 160.842 96.7687C160.441 97.1088 159.639 97.857 159.639 97.857L158.97 98.3332L157.432 99.6256L156.429 100.51C156.429 100.51 154.289 102.822 153.085 103.843Z" fill="white"/>
<path id="Vector_21" d="M159.352 117.004C159.352 117.14 159.285 117.276 159.219 117.345C159.152 117.413 159.018 117.481 158.951 117.481C158.483 117.549 158.149 117.549 157.681 117.549C157.48 117.549 157.012 117.617 156.209 117.549C156.009 117.549 155.741 117.549 155.608 117.549C155.407 117.549 155.14 117.617 154.939 117.617C154.738 117.617 154.27 117.617 154.137 117.549C154.07 117.549 154.003 117.14 154.003 117.072C153.936 116.596 153.936 115.032 153.936 114.692C154.003 114.012 153.936 113.739 153.936 112.923C153.936 112.583 153.936 111.971 154.003 111.699C154.07 111.427 154.203 111.495 154.404 111.427C154.605 111.359 154.872 111.359 155.14 111.359C155.741 111.359 156.209 111.291 156.811 111.291C157.146 111.291 157.881 111.223 158.282 111.291C158.483 111.291 158.75 111.291 159.018 111.291C159.219 111.291 159.352 111.359 159.419 111.563C159.486 111.631 159.486 111.767 159.486 111.903C159.486 112.243 159.486 112.651 159.553 113.059C159.285 113.127 159.419 116.052 159.352 117.004Z" fill="#44C2BB"/>
<path id="Vector_22" d="M172.363 117.004C172.363 117.14 172.296 117.276 172.229 117.345C172.162 117.413 172.029 117.481 171.962 117.481C171.494 117.549 171.159 117.549 170.691 117.549C170.491 117.549 170.023 117.617 169.22 117.549C169.02 117.549 168.752 117.549 168.618 117.549C168.418 117.549 168.15 117.617 167.95 117.617C167.749 117.617 167.281 117.617 167.147 117.549C167.08 117.549 167.014 117.14 167.014 117.072C166.947 116.596 166.947 115.032 166.947 114.692C167.014 114.012 166.947 113.739 166.947 112.923C166.947 112.583 166.947 111.971 167.014 111.699C167.08 111.427 167.214 111.495 167.415 111.427C167.615 111.359 167.883 111.359 168.15 111.359C168.752 111.359 169.22 111.291 169.822 111.291C170.156 111.291 170.892 111.223 171.293 111.291C171.494 111.291 171.761 111.291 172.029 111.291C172.229 111.291 172.363 111.359 172.43 111.563C172.497 111.631 172.497 111.767 172.497 111.903C172.497 112.243 172.497 112.651 172.564 113.059C172.296 113.127 172.43 116.052 172.363 117.004Z" fill="#44C2BB"/>
</g>
<g id="Group_13">
<path id="Union_4" fill-rule="evenodd" clip-rule="evenodd" d="M320.671 63.3733C318.879 64.8925 317.186 67.1205 317.186 67.1205C317.186 67.1205 317.174 67.1704 317.16 67.2455C316.869 67.6875 316.88 68.9651 316.891 70.1356C316.899 71.0079 316.906 71.8208 316.787 72.1838C316.647 72.5405 316.754 73.4999 316.829 74.1776C316.861 74.4623 316.887 74.6972 316.887 74.817L317.185 86.8688C316.922 87.7402 317.051 89.5432 317.139 90.7804C317.184 91.4125 317.219 91.8969 317.185 92.0339C317.086 92.2364 317.086 93.1479 317.185 93.4518C317.353 93.963 317.309 96.3379 317.291 97.3201C317.288 97.5053 317.285 97.641 317.285 97.7053C317.345 98.0413 317.378 98.4232 317.411 98.8068C317.487 99.6953 317.565 100.592 317.982 100.946C318.323 101.154 318.71 101.172 319.209 101.196C319.438 101.206 319.691 101.218 319.973 101.25H321.267C321.566 101.25 321.964 101.25 322.263 101.149C323.037 101.083 325.272 101.187 327.022 101.269C327.974 101.314 328.782 101.351 329.133 101.351H331.224C331.124 101.047 331.124 100.744 331.124 100.541C331.025 99.5283 331.025 95.9836 331.025 95.2747C331.087 94.3839 331.071 93.7729 331.05 92.9897C331.038 92.5263 331.025 92.0026 331.025 91.325C331.025 90.616 331.025 89.2994 331.124 88.5905C331.193 88.1711 331.309 88.1377 331.473 88.0906C331.546 88.0695 331.629 88.0456 331.721 87.9829C331.944 87.8318 332.222 87.8497 332.515 87.8686C332.614 87.8751 332.715 87.8816 332.817 87.8816C333.265 87.8816 333.663 87.831 334.061 87.7803C334.459 87.7297 334.858 87.679 335.306 87.679C335.543 87.679 335.917 87.656 336.308 87.6319C336.735 87.6054 337.184 87.5778 337.496 87.5778C337.589 87.5778 337.692 87.5679 337.801 87.5574C338.043 87.5343 338.317 87.5081 338.591 87.5778C338.89 87.5778 339.089 87.679 339.189 88.1854C339.288 88.388 339.288 88.6918 339.288 88.8943V88.8944C339.288 89.7046 339.288 90.6161 339.388 91.4262C339.388 91.5388 339.398 91.9414 339.412 92.5229C339.461 94.5583 339.565 98.7856 339.487 100.44C339.487 100.744 339.388 100.946 339.288 101.149L341.578 101.047C346.058 100.946 348.647 100.845 348.647 100.845H352.928C353.227 100.845 353.526 100.845 353.725 100.744C353.874 100.693 354.123 100.617 354.372 100.541C354.621 100.465 354.87 100.389 355.019 100.339C355.318 100.136 355.517 99.2245 355.517 98.9206C355.56 98.3112 355.547 97.7017 355.535 97.1003C355.519 96.3026 355.503 95.519 355.616 94.7683L355.517 87.5778L355.417 79.577C355.616 78.5642 355.417 69.0443 355.318 68.7405C355.248 68.4553 355.227 68.1576 355.208 67.8827C355.199 67.7581 355.191 67.6381 355.178 67.5261C355.205 67.5258 355.219 67.5256 355.219 67.5256L355.159 67.3841C355.126 67.1801 355.07 67.0121 354.957 66.9045L354.92 66.8167C354.92 66.8167 353.725 65.6014 353.028 65.095C352.232 64.6899 350.738 62.7657 350.738 62.7657C350.738 62.7657 349.145 61.044 348.448 60.4363C347.875 59.9363 347.639 59.642 347.295 59.2149C347.222 59.1229 347.143 59.0248 347.055 58.9172C346.789 58.5796 346.17 58.107 345.727 57.7694C345.506 57.6006 345.329 57.4656 345.262 57.3981C345.168 57.3023 343.917 56.3913 342.56 55.404C341.047 54.3032 339.405 53.1076 339.09 52.8407C338.946 52.7193 338.803 52.6038 338.666 52.4927C338.229 52.1402 337.847 51.8321 337.696 51.5241C337.497 51.119 335.904 50.7139 335.704 50.7139C335.505 50.7139 334.808 51.2202 334.808 51.2202C334.808 51.2202 332.817 52.3343 332.22 52.8407C331.622 53.347 330.428 54.4611 330.428 54.4611L329.432 55.17L327.142 57.0942L325.649 58.4108C325.649 58.4108 322.463 61.8542 320.671 63.3733Z" fill="white"/>
<path id="Vector_23" d="M330.001 82.9701C330.001 83.1727 329.902 83.3752 329.802 83.4765C329.702 83.5778 329.503 83.6791 329.404 83.6791C328.707 83.7803 328.209 83.7803 327.512 83.7803C327.213 83.7803 326.516 83.8816 325.322 83.7803C325.023 83.7803 324.625 83.7803 324.426 83.7803C324.127 83.7803 323.729 83.8816 323.43 83.8816C323.131 83.8816 322.434 83.8816 322.235 83.7803C322.136 83.7803 322.036 83.1727 322.036 83.0714C321.937 82.3625 321.937 80.0331 321.937 79.5268C322.036 78.514 321.937 78.1089 321.937 76.8936C321.937 76.3872 321.937 75.4757 322.036 75.0706C322.136 74.6655 322.335 74.7668 322.634 74.6655C322.932 74.5643 323.331 74.5643 323.729 74.5643C324.625 74.5643 325.322 74.463 326.218 74.463C326.716 74.463 327.811 74.3617 328.408 74.463C328.707 74.463 329.105 74.463 329.503 74.463C329.802 74.463 330.001 74.5643 330.101 74.8681C330.2 74.9694 330.2 75.1719 330.2 75.3745C330.2 75.8808 330.2 76.4885 330.3 77.0961C329.902 77.1974 330.101 81.5523 330.001 82.9701Z" fill="#44C2BB"/>
<path id="Vector_24" d="M349.373 82.9701C349.373 83.1727 349.274 83.3752 349.174 83.4765C349.075 83.5778 348.876 83.6791 348.776 83.6791C348.079 83.7803 347.581 83.7803 346.884 83.7803C346.586 83.7803 345.889 83.8816 344.694 83.7803C344.395 83.7803 343.997 83.7803 343.798 83.7803C343.499 83.7803 343.101 83.8816 342.802 83.8816C342.504 83.8816 341.807 83.8816 341.608 83.7803C341.508 83.7803 341.409 83.1727 341.409 83.0714C341.309 82.3625 341.309 80.0331 341.309 79.5268C341.409 78.514 341.309 78.1089 341.309 76.8936C341.309 76.3872 341.309 75.4757 341.409 75.0706C341.508 74.6655 341.707 74.7668 342.006 74.6655C342.305 74.5643 342.703 74.5643 343.101 74.5643C343.997 74.5643 344.694 74.463 345.59 74.463C346.088 74.463 347.183 74.3617 347.78 74.463C348.079 74.463 348.477 74.463 348.876 74.463C349.174 74.463 349.373 74.5643 349.473 74.8681C349.573 74.9694 349.573 75.1719 349.573 75.3745C349.573 75.8808 349.573 76.4885 349.672 77.0961C349.274 77.1974 349.473 81.5523 349.373 82.9701Z" fill="#44C2BB"/>
</g>
</g>
</g>
<defs>
<clipPath id="clip0">
<rect width="349" height="146" fill="white"/>
</clipPath>
</defs>
</svg>
