<svg width="341" height="412" viewBox="0 0 341 412" fill="none" xmlns="http://www.w3.org/2000/svg">
<g id="illu-form--right">
<g clip-path="url(#clip0)">
<g id="Group 39">
<path id="Vector 9" d="M107.552 107.688C136.737 88.9476 176.748 93.7756 208.638 79.216C271.706 47.3455 309.724 4.70969 397.851 4.70972C485.977 4.70974 475.734 105.895 485.977 164.178C495.8 220.068 552.592 235.755 534.109 297.455C524.233 330.425 462.403 330.774 424.958 385.076C384.746 443.39 299.143 389.003 250.229 340.448C210.558 301.067 162.747 281.379 119.695 254.08C81.3826 229.786 43.4628 148.839 107.552 107.688Z" stroke="#B1B9C5" stroke-opacity="0.37" stroke-width="13.9361" stroke-linecap="square"/>
<path id="Vector" d="M239.773 379.339C234.171 379.225 228.927 378.312 223.921 375.916C223.444 375.688 222.967 375.46 222.49 375.346C219.391 375.004 216.769 373.521 214.385 371.695C213.551 371.125 212.597 370.555 211.763 369.984C207.71 367.475 204.73 364.052 202.227 360.174C199.605 356.181 197.817 351.732 196.744 347.169C195.552 342.263 195.195 337.244 196.268 332.11C197.221 327.547 199.128 323.44 201.512 319.447C202.466 317.85 203.658 316.367 204.969 314.884C207.949 311.576 210.452 307.925 214.147 305.187C219.987 300.738 226.662 298.457 234.052 297.43C239.177 296.746 244.064 296.746 249.07 298.115C249.666 298.229 250.381 298.229 251.097 298.343C253.838 298.913 256.58 299.483 258.844 301.081C260.155 301.993 261.586 302.564 263.016 303.248C268.022 305.644 271.479 309.408 273.982 314.086C275.412 316.823 276.962 319.561 278.511 322.299C278.988 323.098 279.465 323.782 279.703 324.581C281.61 330.513 283.279 336.445 282.683 342.719C282.564 343.746 282.444 344.659 282.206 345.571C281.729 347.397 281.253 349.222 280.776 350.933C280.061 353.329 279.107 355.61 277.438 357.664C276.723 358.576 276.246 359.603 275.65 360.516C269.333 370.441 259.917 376.373 247.759 378.426C245.018 378.882 242.396 378.997 239.773 379.339Z" fill="#FA774E"/>
<path id="Vector_2" d="M193.711 166.896C189.655 166.814 185.857 166.153 182.233 164.418C181.887 164.253 181.542 164.088 181.197 164.005C178.953 163.758 177.054 162.684 175.328 161.362C174.724 160.949 174.034 160.536 173.43 160.123C170.495 158.306 168.338 155.828 166.526 153.02C164.627 150.129 163.332 146.907 162.556 143.603C161.693 140.052 161.434 136.417 162.21 132.7C162.901 129.396 164.282 126.423 166.008 123.532C166.698 122.375 167.561 121.302 168.51 120.228C170.668 117.832 172.48 115.189 175.156 113.207C179.385 109.986 184.217 108.334 189.568 107.59C193.279 107.095 196.818 107.095 200.442 108.086C200.874 108.168 201.392 108.168 201.909 108.251C203.894 108.664 205.879 109.077 207.519 110.233C208.468 110.894 209.504 111.307 210.54 111.803C214.164 113.537 216.667 116.263 218.479 119.65C219.515 121.632 220.637 123.614 221.759 125.597C222.104 126.175 222.449 126.671 222.622 127.249C224.003 131.544 225.211 135.839 224.78 140.382C224.693 141.125 224.607 141.786 224.434 142.447C224.089 143.769 223.744 145.09 223.399 146.329C222.881 148.064 222.19 149.716 220.982 151.203C220.464 151.863 220.119 152.607 219.688 153.268C215.114 160.454 208.296 164.749 199.493 166.236C197.508 166.566 195.609 166.649 193.711 166.896Z" fill="#FA774E"/>
<g id="Group">
<path id="Vector_3" d="M266.72 335.622C266.72 334.33 266.72 323.349 266.72 322.703C266.72 322.057 266.72 320.766 266.08 320.12C264.801 320.12 242.414 320.12 241.775 320.12C240.495 320.12 239.856 320.12 238.577 320.12C237.937 320.12 234.739 320.12 234.099 320.12C232.82 320.12 231.541 320.12 230.261 320.12C228.982 320.12 227.063 320.766 225.784 320.12H223.865C223.225 320.766 221.946 320.12 221.307 320.766C220.667 321.412 221.307 325.287 220.667 326.579C220.667 327.225 220.667 329.163 220.667 329.809L221.307 344.02C220.667 345.312 221.307 349.833 221.307 349.833C221.307 349.833 221.307 351.125 221.307 351.771C221.307 352.417 221.307 356.293 221.307 356.939C221.307 358.23 221.559 360.168 221.737 360.348C222.376 360.993 223.225 360.814 224.505 360.814C225.144 360.814 225.784 360.814 226.424 360.814C227.063 360.814 227.063 360.814 227.703 360.814C228.982 360.814 234.739 360.814 236.018 360.814C236.018 360.814 237.297 360.814 238.577 360.814C238.577 360.814 238.577 360.168 238.577 359.522C238.577 358.23 238.577 354.355 238.577 353.063C238.577 351.125 238.577 350.479 238.577 348.541C238.577 347.895 238.577 345.957 238.577 345.312C238.577 344.666 239.216 344.666 239.216 344.666C239.856 344.666 239.856 344.666 240.495 344.666C241.775 344.666 242.414 344.666 243.694 344.666C244.333 344.666 245.612 344.666 246.252 344.666C246.892 344.666 246.892 344.666 247.531 344.666C247.531 344.666 248.171 344.666 248.171 345.312V345.957C248.171 346.603 248.171 347.895 248.171 349.187C248.171 349.833 248.171 357.585 248.171 359.522C248.171 360.168 248.171 360.168 248.171 360.168H250.729C255.846 360.168 259.045 360.168 259.045 360.168C260.963 360.168 262.243 360.168 264.162 360.168C264.801 360.168 264.801 360.168 265.441 360.168C266.08 360.168 266.72 360.168 266.72 359.522C267.36 359.522 267.36 358.23 267.36 357.585C267.36 355.647 267.36 354.355 267.36 352.417V344.02L266.72 335.622Z" fill="white"/>
<path id="Vector_4" d="M228.984 330.51C229.623 330.51 229.623 330.51 230.263 330.51C231.542 330.51 232.182 330.51 233.461 330.51C234.101 330.51 235.38 330.51 236.02 330.51C236.659 330.51 236.659 330.51 237.299 330.51C237.299 330.51 237.939 330.51 237.939 331.156V331.802C237.939 332.448 237.939 333.094 237.939 333.739C237.939 334.385 237.939 339.553 237.939 340.845V341.491H237.299C236.659 341.491 236.02 341.491 234.74 341.491C234.101 341.491 233.461 341.491 232.182 341.491C232.182 341.491 231.542 341.491 230.903 341.491C230.263 341.491 230.263 341.491 229.623 341.491C228.984 341.491 228.344 341.491 228.344 341.491V340.845C228.344 340.199 228.344 336.969 228.344 336.323C228.344 335.031 228.344 334.385 228.344 333.094C228.344 332.448 228.344 331.156 228.344 331.156C228.344 330.51 228.344 330.51 228.984 330.51Z" fill="#44C2BB"/>
<path id="Vector_5" d="M251.368 330.51C252.008 330.51 252.008 330.51 252.647 330.51C253.927 330.51 254.566 330.51 255.846 330.51C256.485 330.51 257.764 330.51 258.404 330.51C259.044 330.51 259.044 330.51 259.683 330.51C259.683 330.51 260.323 330.51 260.323 331.156V331.802C260.323 332.448 260.323 333.094 260.323 333.739C260.323 334.385 260.323 339.553 260.323 340.845V341.491H259.683C259.044 341.491 258.404 341.491 257.125 341.491C256.485 341.491 255.846 341.491 254.566 341.491C254.566 341.491 253.927 341.491 253.287 341.491C252.647 341.491 252.647 341.491 252.008 341.491C251.368 341.491 250.729 341.491 250.729 341.491V340.845C250.729 340.199 250.729 336.969 250.729 336.323C250.729 335.031 250.729 334.385 250.729 333.094C250.729 332.448 250.729 331.156 250.729 331.156C250.729 330.51 250.729 330.51 251.368 330.51Z" fill="#44C2BB"/>
<path id="Vector_6" d="M221.307 321.466C221.307 321.466 223.226 318.883 225.785 316.945C228.343 315.007 231.541 311.131 231.541 311.131L233.46 309.839L236.019 307.901L237.298 307.255C237.298 307.255 238.577 305.964 239.217 305.318C239.856 304.672 242.415 303.38 242.415 303.38C242.415 303.38 243.055 302.088 243.694 302.088C244.334 302.088 245.613 302.734 246.253 302.734C246.892 302.734 247.532 304.026 248.172 304.672C248.811 305.318 255.207 309.839 255.207 309.839C255.207 309.839 257.126 311.131 257.126 311.777C257.766 312.423 257.766 312.423 259.045 313.715C259.685 314.361 261.604 316.299 261.604 316.299C261.604 316.299 263.523 318.883 264.162 318.883C264.802 318.883 266.081 321.466 266.081 321.466L266.721 322.112C266.721 322.112 221.947 322.758 221.307 322.758C220.668 322.758 221.307 321.466 221.307 321.466Z" fill="white"/>
</g>
<g id="Group_2">
<path id="Vector_7" d="M207.462 137.247C207.462 136.421 207.462 129.402 207.462 128.989C207.462 128.576 207.462 127.751 207.053 127.338C206.236 127.338 191.926 127.338 191.518 127.338C190.7 127.338 190.291 127.338 189.473 127.338C189.065 127.338 187.02 127.338 186.611 127.338C185.794 127.338 184.976 127.338 184.158 127.338C183.341 127.338 182.114 127.751 181.297 127.338H180.07C179.661 127.751 178.844 127.338 178.435 127.751C178.026 128.163 178.435 130.641 178.026 131.466C178.026 131.879 178.026 133.118 178.026 133.531L178.435 142.614C178.026 143.44 178.435 146.33 178.435 146.33C178.435 146.33 178.435 147.156 178.435 147.569C178.435 147.982 178.435 150.459 178.435 150.872C178.435 151.698 178.596 152.936 178.71 153.051C179.119 153.464 179.661 153.349 180.479 153.349C180.888 153.349 181.297 153.349 181.705 153.349C182.114 153.349 182.114 153.349 182.523 153.349C183.341 153.349 187.02 153.349 187.838 153.349C187.838 153.349 188.656 153.349 189.473 153.349C189.473 153.349 189.473 152.936 189.473 152.523C189.473 151.698 189.473 149.22 189.473 148.394C189.473 147.156 189.473 146.743 189.473 145.504C189.473 145.091 189.473 143.853 189.473 143.44C189.473 143.027 189.882 143.027 189.882 143.027C190.291 143.027 190.291 143.027 190.7 143.027C191.518 143.027 191.926 143.027 192.744 143.027C193.153 143.027 193.971 143.027 194.379 143.027C194.788 143.027 194.788 143.027 195.197 143.027C195.197 143.027 195.606 143.027 195.606 143.44V143.853C195.606 144.266 195.606 145.091 195.606 145.917C195.606 146.33 195.606 151.285 195.606 152.523C195.606 152.936 195.606 152.936 195.606 152.936H197.241C200.512 152.936 202.556 152.936 202.556 152.936C203.783 152.936 204.6 152.936 205.827 152.936C206.236 152.936 206.236 152.936 206.645 152.936C207.053 152.936 207.462 152.936 207.462 152.523C207.871 152.523 207.871 151.698 207.871 151.285C207.871 150.046 207.871 149.22 207.871 147.982V142.614L207.462 137.247Z" fill="white"/>
<path id="Vector_8" d="M183.341 133.979C183.75 133.979 183.75 133.979 184.159 133.979C184.977 133.979 185.386 133.979 186.203 133.979C186.612 133.979 187.43 133.979 187.839 133.979C188.248 133.979 188.248 133.979 188.656 133.979C188.656 133.979 189.065 133.979 189.065 134.392V134.805C189.065 135.218 189.065 135.631 189.065 136.043C189.065 136.456 189.065 139.759 189.065 140.585V140.998H188.656C188.248 140.998 187.839 140.998 187.021 140.998C186.612 140.998 186.203 140.998 185.386 140.998C185.386 140.998 184.977 140.998 184.568 140.998C184.159 140.998 184.159 140.998 183.75 140.998C183.341 140.998 182.933 140.998 182.933 140.998V140.585C182.933 140.172 182.933 138.108 182.933 137.695C182.933 136.869 182.933 136.456 182.933 135.631C182.933 135.218 182.933 134.392 182.933 134.392C182.933 133.979 182.933 133.979 183.341 133.979Z" fill="#44C2BB"/>
<path id="Vector_9" d="M197.649 133.979C198.058 133.979 198.058 133.979 198.467 133.979C199.284 133.979 199.693 133.979 200.511 133.979C200.92 133.979 201.737 133.979 202.146 133.979C202.555 133.979 202.555 133.979 202.964 133.979C202.964 133.979 203.373 133.979 203.373 134.392V134.805C203.373 135.218 203.373 135.631 203.373 136.043C203.373 136.456 203.373 139.759 203.373 140.585V140.998H202.964C202.555 140.998 202.146 140.998 201.329 140.998C200.92 140.998 200.511 140.998 199.693 140.998C199.693 140.998 199.284 140.998 198.876 140.998C198.467 140.998 198.467 140.998 198.058 140.998C197.649 140.998 197.24 140.998 197.24 140.998V140.585C197.24 140.172 197.24 138.108 197.24 137.695C197.24 136.869 197.24 136.456 197.24 135.631C197.24 135.218 197.24 134.392 197.24 134.392C197.24 133.979 197.24 133.979 197.649 133.979Z" fill="#44C2BB"/>
<path id="Vector_10" d="M178.435 128.198C178.435 128.198 179.662 126.547 181.297 125.308C182.932 124.07 184.977 121.592 184.977 121.592L186.203 120.767L187.838 119.528L188.656 119.115C188.656 119.115 189.474 118.289 189.883 117.876C190.291 117.464 191.927 116.638 191.927 116.638C191.927 116.638 192.336 115.812 192.744 115.812C193.153 115.812 193.971 116.225 194.38 116.225C194.789 116.225 195.198 117.051 195.606 117.464C196.015 117.876 200.104 120.767 200.104 120.767C200.104 120.767 201.33 121.592 201.33 122.005C201.739 122.418 201.739 122.418 202.557 123.244C202.965 123.657 204.192 124.895 204.192 124.895C204.192 124.895 205.418 126.547 205.827 126.547C206.236 126.547 207.054 128.198 207.054 128.198L207.463 128.611C207.463 128.611 178.844 129.024 178.435 129.024C178.026 129.024 178.435 128.198 178.435 128.198Z" fill="white"/>
</g>
<g id="soignant">
<path id="Vector_11" d="M40.0709 308.181C35.4179 308.082 31.062 307.29 26.904 305.211C26.508 305.013 26.112 304.815 25.716 304.716C23.142 304.419 20.964 303.132 18.9841 301.548C18.2911 301.053 17.4991 300.558 16.8061 300.063C13.4401 297.885 10.9651 294.915 8.88616 291.549C6.70818 288.084 5.22319 284.223 4.3322 280.263C3.34221 276.007 3.04521 271.651 3.93621 267.196C4.7282 263.236 6.31218 259.672 8.29217 256.207C9.08416 254.821 10.0741 253.534 11.1631 252.247C13.6381 249.376 15.7171 246.208 18.7861 243.832C23.637 239.971 29.181 237.991 35.3189 237.1C39.5759 236.506 43.6348 236.506 47.7928 237.694C48.2878 237.793 48.8818 237.793 49.4758 237.892C51.7528 238.387 54.0297 238.882 55.9107 240.268C56.9997 241.06 58.1877 241.555 59.3757 242.149C63.5336 244.228 66.4046 247.495 68.4836 251.554C69.6716 253.93 70.9586 256.306 72.2456 258.682C72.6416 259.375 73.0376 259.969 73.2356 260.662C74.8195 265.81 76.2055 270.958 75.7105 276.403C75.6115 277.294 75.5125 278.086 75.3145 278.878C74.9185 280.461 74.5225 282.045 74.1265 283.53C73.5326 285.609 72.7406 287.589 71.3546 289.371C70.7606 290.163 70.3646 291.054 69.8696 291.846C64.6226 300.459 56.8017 305.607 46.7038 307.389C44.4268 307.785 42.2488 307.884 40.0709 308.181Z" fill="#CBD0D7"/>
<path id="Vector_12" d="M9.1957 272.094C9.09687 275.849 10.1839 279.406 11.5674 282.964C12.6544 285.731 13.9391 288.201 16.1131 290.474C19.5718 294.131 23.4258 297.194 27.8728 299.665C30.6397 301.246 33.5055 302.431 36.7666 302.728C39.7312 303.024 42.6958 302.827 45.5616 302.431C54.3567 301.246 61.0765 297.194 65.3257 289.684C67.0057 286.719 68.2903 283.557 69.4762 280.395C70.5632 277.628 70.8597 274.959 70.1679 272.192C69.6738 270.216 69.0809 268.24 68.7845 266.263C68.3892 264.089 67.401 262.212 66.3139 260.334C65.5234 259.049 64.7328 257.863 64.1399 256.48C62.0647 251.539 58.2107 248.179 53.072 246.104C49.7121 244.72 46.0557 244.029 42.4982 243.436C41.1147 243.238 39.6324 243.139 38.2489 243.238C33.802 243.534 29.6515 244.424 25.5999 246.203C22.7341 247.487 20.3624 249.167 18.386 251.539C17.299 252.922 16.3108 254.306 15.1249 255.591C10.7768 260.334 9.39334 266.066 9.1957 272.094Z" fill="#44C2BB"/>
<g id="Group_3">
<path id="Vector_13" d="M33.3373 275.908C34.4262 276.601 40.2672 277.888 40.8612 277.789C42.0492 277.789 47.6921 276.304 48.6821 274.918C49.3751 274.027 51.3551 271.156 51.6521 270.067C52.0481 268.285 51.5531 261.751 51.4541 261.058C51.3551 260.365 50.8601 259.078 50.5631 258.484C48.4841 255.019 45.8111 253.534 41.9502 252.544C41.1582 252.346 40.4652 252.247 39.6732 252.247C37.0002 252.247 32.3473 254.425 30.8623 256.108C29.7733 257.296 27.8923 260.563 27.8923 261.157C27.6943 265.018 28.5853 268.978 30.4663 272.344C31.1593 273.829 32.0503 275.116 33.3373 275.908Z" fill="#F9F6F4"/>
<path id="Vector_14" d="M64.8184 290.757C64.8184 290.658 64.8184 290.658 64.7194 290.559C63.5314 287.886 61.5514 285.807 61.1554 284.916C58.5815 282.837 57.4925 283.035 52.4435 281.649C45.8106 280.857 36.0097 281.451 29.7727 282.54C27.0007 282.936 25.0208 283.728 25.0208 283.728C25.0208 283.728 20.7638 284.916 17.8928 287.49C17.1998 288.084 16.6058 289.173 16.1108 290.559C16.1108 290.559 16.1108 290.559 16.2098 290.658C19.6748 294.321 23.5358 297.39 27.9907 299.865C30.7627 301.449 33.6337 302.637 36.9007 302.934C39.8706 303.231 42.8406 303.033 45.7116 302.637C54.0275 301.449 60.4624 297.687 64.8184 290.757Z" fill="#F9F6F4"/>
</g>
</g>
</g>
</g>
</g>
<defs>
<clipPath id="clip0">
<rect width="341" height="412" fill="white"/>
</clipPath>
</defs>
</svg>
