<svg width="96" height="106" viewBox="0 0 96 106" fill="none" xmlns="http://www.w3.org/2000/svg">
<g id="illu-main--left">
<g id="Group 40">
<g id="Group">
<path id="Vector" d="M38.6208 91.6773L38.5277 84.1957C38.7139 83.2486 38.5277 74.3465 38.4346 74.0623C38.2484 73.3047 38.4346 72.4524 37.9691 72.263C37.038 71.8842 19.4419 71.8842 19.0695 71.8842C18.3247 71.8842 17.4868 71.8842 16.6488 71.9789C16.0902 71.9789 13.7627 72.1683 13.2041 72.0736C12.2731 72.0736 11.249 71.9789 10.318 72.0736C9.10764 72.1683 7.80422 72.3577 6.687 72.1683H5.19738C4.35947 72.3577 3.52156 72.1683 2.86985 72.5471C2.21814 72.9259 2.68364 76.4299 2.40434 77.2823C2.21814 77.7558 2.49744 79.3658 2.49744 79.7446L2.77674 91.0144C2.40434 92.2455 2.86985 95.4654 2.77674 95.8443C2.68364 96.0337 2.68364 96.886 2.77674 97.1701C2.96295 97.7383 2.86985 100.769 2.86985 101.148C3.05605 102.189 2.96295 103.705 3.52156 104.178C3.98706 104.462 4.54567 104.368 5.38358 104.462C5.66289 104.462 6.3146 104.462 6.5939 104.462C6.8732 104.462 7.24561 104.462 7.52491 104.368C8.64213 104.273 13.0179 104.557 13.9489 104.557C14.2282 104.557 14.973 104.557 15.904 104.557C15.8109 104.273 15.8109 103.989 15.8109 103.799C15.7178 102.852 15.7178 99.5377 15.7178 98.8748C15.8109 97.5489 15.7178 96.886 15.7178 95.1813C15.7178 94.5184 15.7178 93.2873 15.8109 92.6243C15.904 92.0561 16.0902 92.2455 16.3695 92.0561C16.6488 91.8667 17.0213 91.9614 17.3937 91.9614C18.2316 91.9614 18.8833 91.772 19.7212 91.772C20.1867 91.772 21.2108 91.6773 21.7694 91.6773C22.0487 91.6773 22.4211 91.5826 22.7935 91.6773C23.0728 91.6773 23.259 91.772 23.3521 92.2455C23.4452 92.4349 23.4452 92.719 23.4452 92.9084C23.4452 93.6661 23.4452 94.5184 23.5383 95.276C23.5383 95.7496 23.7245 101.716 23.6314 103.705C23.6314 103.989 23.5383 104.178 23.4452 104.368L25.5866 104.273C29.7761 104.178 32.1968 104.084 32.1968 104.084C33.5002 104.084 34.8967 104.084 36.2001 104.084C36.4794 104.084 36.7587 104.084 36.9449 103.989C37.2242 103.894 37.8759 103.705 38.1553 103.61C38.4346 103.421 38.6208 102.568 38.6208 102.284C38.7139 100.958 38.5277 99.6324 38.7139 98.4013L38.6208 91.6773ZM15.8109 87.5103C15.8109 87.6997 15.7178 87.8891 15.6247 87.9838C15.5316 88.0785 15.3454 88.1732 15.2523 88.1732C14.6006 88.2679 14.1351 88.2679 13.4834 88.2679C13.2041 88.2679 12.5524 88.3626 11.4352 88.2679C11.1559 88.2679 10.7835 88.2679 10.5973 88.2679C10.318 88.2679 9.94555 88.3627 9.66624 88.3627C9.38694 88.3627 8.73523 88.3626 8.54903 88.2679C8.45593 88.2679 8.36282 87.6997 8.36282 87.605C8.26972 86.9421 8.26972 84.7639 8.26972 84.2904C8.36283 83.3433 8.26972 82.9645 8.26972 81.8281C8.26972 81.3546 8.26972 80.5022 8.36282 80.1234C8.45593 79.7446 8.64213 79.8393 8.92143 79.7446C9.20074 79.6499 9.57314 79.6499 9.94555 79.6499C10.7835 79.6499 11.4352 79.5552 12.2731 79.5552C12.7386 79.5552 13.7627 79.4605 14.3213 79.5552C14.6006 79.5552 14.973 79.5552 15.3454 79.5552C15.6247 79.5552 15.8109 79.6499 15.904 79.934C15.9971 80.0287 15.9971 80.2181 15.9971 80.4075C15.9971 80.881 15.9971 81.4493 16.0902 82.0175C15.7178 82.1122 15.904 86.1845 15.8109 87.5103ZM33.314 87.5103C33.314 87.6997 33.2209 87.8891 33.1278 87.9838C33.0347 88.0785 32.8485 88.1732 32.7554 88.1732C32.1037 88.2679 31.6382 88.2679 30.9865 88.2679C30.7071 88.2679 30.0554 88.3626 28.9382 88.2679C28.6589 88.2679 28.2865 88.2679 28.1003 88.2679C27.821 88.2679 27.4486 88.3627 27.1693 88.3627C26.89 88.3627 26.2383 88.3626 26.0521 88.2679C25.959 88.2679 25.8659 87.6997 25.8659 87.605C25.7728 86.9421 25.7728 84.7639 25.7728 84.2904C25.8659 83.3433 25.7728 82.9645 25.7728 81.8281C25.7728 81.3546 25.7728 80.5022 25.8659 80.1234C25.959 79.7446 26.1452 79.8393 26.4245 79.7446C26.7038 79.6499 27.0762 79.6499 27.4486 79.6499C28.2865 79.6499 28.9382 79.5552 29.7761 79.5552C30.2416 79.5552 31.2658 79.4605 31.8244 79.5552C32.1037 79.5552 32.4761 79.5552 32.8485 79.5552C33.1278 79.5552 33.314 79.6499 33.4071 79.934C33.5002 80.0287 33.5002 80.2181 33.5002 80.4075C33.5002 80.881 33.5002 81.4493 33.5933 82.0175C33.2209 82.1122 33.4071 86.1845 33.314 87.5103Z" fill="#0DABAE"/>
<path id="Vector_2" d="M2.77644 72.5471C2.77644 72.5471 4.35916 70.4636 6.03499 69.0431C7.71081 67.6225 10.6901 64.4026 10.6901 64.4026L12.0866 63.1714L14.2279 61.3721L15.1589 60.7091C15.1589 60.7091 16.2761 59.6674 16.8347 59.1939C17.3933 58.7203 19.2554 57.6786 19.2554 57.6786C19.2554 57.6786 19.9071 57.2051 20.0933 57.2051C20.2795 57.2051 21.7691 57.5839 21.9553 57.9627C22.1415 58.3415 22.7001 58.7203 23.2587 59.1939C23.8173 59.6674 28.8448 63.2661 29.031 63.4555C29.2172 63.645 30.3344 64.4026 30.7068 64.8761C31.1723 65.4443 31.3585 65.7284 32.0103 66.2967C32.662 66.8649 34.1516 68.4749 34.1516 68.4749C34.1516 68.4749 35.5481 70.2742 36.2929 70.653C36.9446 71.1266 38.0618 72.263 38.0618 72.263L38.3412 72.9259C38.3412 72.9259 3.14884 73.3048 2.86954 73.3048C2.59024 73.3048 2.77644 72.5471 2.77644 72.5471Z" fill="#0DABAE"/>
</g>
<g id="Group_2">
<path id="Vector_3" d="M92.8874 43.7002L92.7748 34.6499C93 33.5043 92.7748 22.7356 92.6621 22.3919C92.4369 21.4754 92.6621 20.4444 92.099 20.2153C90.9728 19.757 69.6873 19.757 69.2368 19.757C68.3358 19.757 67.3222 19.757 66.3086 19.8716C65.6329 19.8716 62.8173 20.1007 62.1416 19.9861C61.0154 19.9861 59.7765 19.8716 58.6503 19.9861C57.1862 20.1007 55.6095 20.3298 54.258 20.1007H52.4561C51.4425 20.3298 50.4289 20.1007 49.6405 20.5589C48.8522 21.0172 49.4153 25.2559 49.0774 26.287C48.8522 26.8598 49.19 28.8073 49.19 29.2656L49.5279 42.8983C49.0774 44.3876 49.6405 48.2826 49.5279 48.7409C49.4153 48.97 49.4153 50.001 49.5279 50.3447C49.7532 51.0321 49.6405 54.698 49.6405 55.1563C49.8658 56.4164 49.7532 58.2494 50.4289 58.8222C50.992 59.1659 51.6677 59.0513 52.6813 59.1659C53.0192 59.1659 53.8076 59.1659 54.1454 59.1659C54.4833 59.1659 54.9338 59.1659 55.2716 59.0513C56.6231 58.9368 61.9163 59.2805 63.0426 59.2805C63.3804 59.2805 64.2814 59.2805 65.4076 59.2805C65.295 58.9368 65.295 58.5931 65.295 58.364C65.1824 57.2184 65.1824 53.2087 65.1824 52.4068C65.295 50.803 65.1824 50.001 65.1824 47.9389C65.1824 47.137 65.1824 45.6477 65.295 44.8458C65.4076 44.1584 65.6329 44.3876 65.9707 44.1584C66.3086 43.9293 66.7591 44.0439 67.2096 44.0439C68.2232 44.0439 69.0115 43.8148 70.0251 43.8148C70.5882 43.8148 71.8271 43.7002 72.5028 43.7002C72.8407 43.7002 73.2912 43.5856 73.7416 43.7002C74.0795 43.7002 74.3048 43.8148 74.4174 44.3876C74.53 44.6167 74.53 44.9604 74.53 45.1895C74.53 46.106 74.53 47.137 74.6426 48.0535C74.6426 48.6263 74.8679 55.8436 74.7552 58.2494C74.7552 58.5931 74.6426 58.8222 74.53 59.0513L77.1203 58.9368C82.1883 58.8222 85.1165 58.7076 85.1165 58.7076C86.6932 58.7076 88.3825 58.7076 89.9592 58.7076C90.2971 58.7076 90.6349 58.7077 90.8602 58.5931C91.1981 58.4785 91.9864 58.2494 92.3243 58.1348C92.6621 57.9057 92.8874 56.8747 92.8874 56.531C93 54.9271 92.7748 53.3233 93 51.834L92.8874 43.7002ZM65.295 38.6595C65.295 38.8887 65.1824 39.1178 65.0697 39.2323C64.9571 39.3469 64.7319 39.4615 64.6193 39.4615C63.8309 39.576 63.2678 39.576 62.4794 39.576C62.1416 39.576 61.3532 39.6906 60.0018 39.576C59.6639 39.576 59.2134 39.576 58.9882 39.576C58.6503 39.576 58.1998 39.6906 57.8619 39.6906C57.5241 39.6906 56.7357 39.6906 56.5105 39.576C56.3979 39.576 56.2852 38.8887 56.2852 38.7741C56.1726 37.9722 56.1726 35.3373 56.1726 34.7645C56.2852 33.6189 56.1726 33.1606 56.1726 31.7859C56.1726 31.2131 56.1726 30.182 56.2852 29.7238C56.3979 29.2656 56.6231 29.3801 56.961 29.2656C57.2988 29.151 57.7493 29.151 58.1998 29.151C59.2134 29.151 60.0018 29.0364 61.0154 29.0364C61.5785 29.0364 62.8173 28.9219 63.493 29.0364C63.8309 29.0364 64.2814 29.0364 64.7319 29.0364C65.0697 29.0364 65.295 29.151 65.4076 29.4947C65.5202 29.6092 65.5202 29.8384 65.5202 30.0675C65.5202 30.6403 65.5202 31.3276 65.6329 32.015C65.1824 32.1296 65.4076 37.0557 65.295 38.6595ZM86.4679 38.6595C86.4679 38.8887 86.3553 39.1178 86.2427 39.2323C86.1301 39.3469 85.9048 39.4615 85.7922 39.4615C85.0038 39.576 84.4407 39.576 83.6524 39.576C83.3145 39.576 82.5262 39.6906 81.1747 39.576C80.8368 39.576 80.3863 39.576 80.1611 39.576C79.8232 39.576 79.3727 39.6906 79.0349 39.6906C78.697 39.6906 77.9087 39.6906 77.6834 39.576C77.5708 39.576 77.4582 38.8887 77.4582 38.7741C77.3455 37.9722 77.3455 35.3373 77.3455 34.7645C77.4582 33.6189 77.3455 33.1606 77.3455 31.7859C77.3455 31.2131 77.3455 30.182 77.4582 29.7238C77.5708 29.2656 77.796 29.3801 78.1339 29.2656C78.4718 29.151 78.9223 29.151 79.3727 29.151C80.3863 29.151 81.1747 29.0364 82.1883 29.0364C82.7514 29.0364 83.9902 28.9219 84.666 29.0364C85.0038 29.0364 85.4543 29.0364 85.9048 29.0364C86.2427 29.0364 86.4679 29.151 86.5806 29.4947C86.6932 29.6092 86.6932 29.8384 86.6932 30.0675C86.6932 30.6403 86.6932 31.3276 86.8058 32.015C86.3553 32.1296 86.5805 37.0557 86.4679 38.6595Z" fill="#0DABAE"/>
<path id="Vector_4" d="M49.5278 20.5588C49.5278 20.5588 51.4423 18.0385 53.4695 16.3201C55.4967 14.6017 59.1006 10.7066 59.1006 10.7066L60.79 9.21732L63.3803 7.04067L64.5065 6.23875C64.5065 6.23875 65.858 4.97858 66.5337 4.40577C67.2094 3.83297 69.4619 2.5728 69.4619 2.5728C69.4619 2.5728 70.2502 2 70.4755 2C70.7007 2 72.5027 2.45824 72.7279 2.91649C72.9531 3.37473 73.6289 3.83297 74.3046 4.40577C74.9803 4.97858 81.0619 9.33188 81.2872 9.56101C81.5124 9.79013 82.8639 10.7066 83.3144 11.2794C83.8775 11.9668 84.1027 12.3105 84.8911 12.9978C85.6794 13.6852 87.4814 15.6327 87.4814 15.6327C87.4814 15.6327 89.1707 17.8094 90.0717 18.2676C90.86 18.8404 92.2115 20.2151 92.2115 20.2151L92.5494 21.0171C92.5494 21.0171 49.9783 21.4753 49.6404 21.4753C49.3025 21.4753 49.5278 20.5588 49.5278 20.5588Z" fill="#0DABAE"/>
</g>
</g>
</g>
</svg>
