<svg version="1.1" id="Calque_1" xmlns="http://www.w3.org/2000/svg" x="0" y="0" viewBox="0 0 360 100" xml:space="preserve">
  <style>
    .st0{fill:#e30613}
  </style>
  <path d="M33.5 72.2h27.8c.6 0 1-.3 1-1 0-4.5-6.5-18.5-19.1-18.5-11.6 0-19.9 13.3-19.9 23.6 0 14.1 8.7 23.6 21.2 23.6 9.8 0 17-6.6 18.7-16.4h-1.7c-1.5 8.7-8.1 14.7-17 14.7-10 0-11.1-8.5-11-16.1v-9.9zM52 69.7c0 .4-.2.7-.7.7H33.5v-3c0-6.8 2.2-13.1 9.7-13.1 7 0 8.8 6.3 8.8 13.1v2.3zm24.8 20.8c0 7 4.9 9.5 12.4 9.5 7.9 0 11-5.5 11.7-8.1l-1.6-.3c-.6 1.8-3 6.7-8.3 6.7-3.4 0-5.2-1.4-5.2-5.8V56.7h14.7V55H85.8V40.1h-1.3C82.7 50.6 78.6 55.3 67.6 55v1.7h9.3v33.8h-.1zm35.5 6.5h-8.5v1.7h26V97h-8.5V52.7c-2.1 2.1-5.5 2.3-8.9 2.3h-8.5v1.7h8.5V97h-.1zm-1-63.5c0 3 2.5 5.4 5.4 5.4 3 0 5.4-2.5 5.4-5.4s-2.5-5.4-5.4-5.4c-2.9 0-5.4 2.4-5.4 5.4zM141.4 97H133v1.7h24.8V97h-7.5V82.1l3.7-3.5L169 97h-7.7v1.7H188V97h-5.4c-2 0-2.9-1.2-5.2-4l-16.7-20.8L172.5 61c3.6-3.4 5.3-4.3 8.9-4.3h3.7V55h-22.5v1.7h3.6c3.3 0 4.8.5 4.8 1.7 0 .7-1.4 2.7-3.7 4.9l-17 16.4V20.4c-2.1 2.5-5.5 2.7-8.9 2.7H133v1.7h8.4V97zm57.8 0h-7.4v1.7h16.3v-7.8h.2c1.4 3.4 6.4 9.1 14 9.1 13.3 0 21.9-11.2 21.9-23.6 0-10.4-8.4-23.6-21.2-23.6-7.7 0-12.8 5.9-14.7 10.9h-.2V20.4c-2.1 2.5-5.5 2.7-8.9 2.7h-7.4v1.7h7.4V97zm9-26.1c0-7.8 6.1-16.5 14.9-16.5 9.4 0 11 7.4 11 21.9 0 15.9-1.3 21.9-11.7 21.9-6.3 0-14.2-4.9-14.2-15V70.9zM255.6 97h-8.4v1.7h25.5V97h-8.1V67c1.9-3.6 6.5-12.6 15.4-12.6 3.4 0 6.3 1.9 6.3 7.8V97h-8.4v1.7h25.8V97h-8.4V64.7c0-6.3-3.2-12-14.6-12-7.8 0-13.1 5.8-15.9 10.9h-.2V52.7c-1.9 2.3-3.8 2.3-8.9 2.3h-8.4v1.7h8.4V97h-.1zm57.8 0H306v1.7h16.3v-7.8h.2c1.4 3.4 6.4 9.1 14 9.1 13.3 0 21.9-11.2 21.9-23.6 0-10.4-8.4-23.6-21.2-23.6-7.7 0-12.8 5.9-14.7 10.9h-.2V20.4c-2.1 2.5-5.5 2.7-8.9 2.7H306v1.7h7.4V97zm9-26.1c0-7.8 6.1-16.5 14.9-16.5 9.4 0 11 7.4 11 21.9 0 15.9-1.3 21.9-11.7 21.9-6.3 0-14.2-4.9-14.2-15V70.9z"/>
  <path class="st0" d="M30.3 10.1H20.2V0H10.1v10.1H0v10.1h10.1v10.1h10.1V20.2h10.1V10.1zM58.6 25.2H48.5V15.1H38.4v10.1H28.3v10.1h10.1v10.1h10.1V35.3h10.1V25.2z"/>
</svg>
