<?xml version="1.0" encoding="UTF-8" standalone="no"?>
<!-- Created with Inkscape (http://www.inkscape.org/) -->

<svg
   xmlns:dc="http://purl.org/dc/elements/1.1/"
   xmlns:cc="http://creativecommons.org/ns#"
   xmlns:rdf="http://www.w3.org/1999/02/22-rdf-syntax-ns#"
   xmlns:svg="http://www.w3.org/2000/svg"
   xmlns="http://www.w3.org/2000/svg"
   xmlns:sodipodi="http://sodipodi.sourceforge.net/DTD/sodipodi-0.dtd"
   xmlns:inkscape="http://www.inkscape.org/namespaces/inkscape"
   width="15.826614mm"
   height="16.727287mm"
   viewBox="0 0 15.826614 16.727287"
   version="1.1"
   id="svg2074"
   inkscape:version="0.92.4 5da689c313, 2019-01-14"
   sodipodi:docname="picto-soignant.svg">
  <defs
     id="defs2068" />
  <sodipodi:namedview
     id="base"
     pagecolor="#ffffff"
     bordercolor="#666666"
     borderopacity="1.0"
     inkscape:pageopacity="0.0"
     inkscape:pageshadow="2"
     inkscape:zoom="2.8"
     inkscape:cx="16.408426"
     inkscape:cy="11.360863"
     inkscape:document-units="mm"
     inkscape:current-layer="layer1"
     showgrid="false"
     inkscape:window-width="1318"
     inkscape:window-height="712"
     inkscape:window-x="48"
     inkscape:window-y="28"
     inkscape:window-maximized="1"
     fit-margin-top="0"
     fit-margin-left="0"
     fit-margin-right="0"
     fit-margin-bottom="0" />
  <metadata
     id="metadata2071">
    <rdf:RDF>
      <cc:Work
         rdf:about="">
        <dc:format>image/svg+xml</dc:format>
        <dc:type
           rdf:resource="http://purl.org/dc/dcmitype/StillImage" />
        <dc:title></dc:title>
      </cc:Work>
    </rdf:RDF>
  </metadata>
  <g
     inkscape:label="Calque 1"
     inkscape:groupmode="layer"
     id="layer1"
     transform="translate(-9.4074879,-63.296464)">
    <path
       inkscape:connector-curvature="0"
       style="fill:#ffffff;stroke:#000000;stroke-width:0.26458332;stroke-opacity:0.37628868"
       id="Vector_3"
       d="m 16.90012,77.776332 c -0.933979,-0.0199 -1.808427,-0.178884 -2.643188,-0.596212 -0.07938,-0.03977 -0.159014,-0.07951 -0.238389,-0.09938 -0.516732,-0.05964 -0.953823,-0.317976 -1.351492,-0.635953 -0.138906,-0.09938 -0.297921,-0.198755 -0.437092,-0.298106 -0.675746,-0.437224 -1.172633,-1.033436 -1.589881,-1.709155 -0.437356,-0.69559 -0.735277,-1.47066 -0.9141353,-2.2656 -0.1989667,-0.854578 -0.258498,-1.729026 -0.07964,-2.623344 0.1590146,-0.794941 0.4770443,-1.510401 0.8744483,-2.20599 0.159015,-0.278236 0.357717,-0.536602 0.576262,-0.794941 0.496888,-0.576342 0.9144,-1.212321 1.53035,-1.689285 0.973932,-0.77507 2.086769,-1.172554 3.318934,-1.351412 0.854604,-0.119248 1.669521,-0.119248 2.504016,0.119248 0.09948,0.01987 0.218811,0.01987 0.337873,0.03974 0.4572,0.09938 0.914136,0.198755 1.291961,0.476964 0.218545,0.158988 0.456935,0.258366 0.695589,0.377614 0.834496,0.417353 1.411023,1.073176 1.828271,1.888013 0.23839,0.476965 0.496888,0.953929 0.755121,1.430893 0.07964,0.139118 0.159014,0.258366 0.198702,0.397484 0.318029,1.033436 0.596371,2.066872 0.496887,3.159919 -0.01984,0.178885 -0.03969,0.337873 -0.07938,0.496861 -0.07964,0.317976 -0.159014,0.635952 -0.238654,0.934058 -0.119062,0.417354 -0.278077,0.814837 -0.556418,1.172554 -0.119063,0.158988 -0.198703,0.337846 -0.297921,0.496834 -1.053307,1.729026 -2.623344,2.762462 -4.650581,3.120205 -0.4572,0.07948 -0.894292,0.09935 -1.331648,0.158988 z" />
    <path
       inkscape:connector-curvature="0"
       style="fill:#44c2bb;stroke-width:0.26458332"
       id="Vector_4"
       d="m 10.701991,70.531882 c -0.01984,0.753851 0.198437,1.468015 0.47625,2.182178 0.218016,0.555466 0.475985,1.051401 0.912283,1.507675 0.694531,0.734007 1.468173,1.348978 2.360877,1.844913 0.55536,0.31742 1.130829,0.555466 1.785408,0.614997 0.595048,0.0595 1.190361,0.01982 1.765565,-0.05953 1.765564,-0.238047 3.11441,-1.051402 3.967691,-2.559077 0.33708,-0.595154 0.595048,-1.229969 0.833173,-1.864783 0.218017,-0.55544 0.277548,-1.091063 0.138642,-1.646529 -0.09895,-0.396769 -0.218017,-0.793512 -0.277548,-1.190281 -0.07938,-0.43643 -0.277812,-0.813356 -0.496094,-1.190281 -0.15875,-0.257889 -0.317235,-0.495935 -0.436298,-0.773668 -0.416718,-0.991897 -1.19036,-1.666399 -2.22197,-2.082985 -0.674423,-0.277733 -1.408377,-0.416587 -2.122488,-0.535623 -0.277812,-0.03969 -0.575469,-0.05951 -0.853016,-0.03969 -0.892705,0.05953 -1.726142,0.238072 -2.539471,0.595154 -0.575204,0.257889 -1.05119,0.595127 -1.448065,1.071244 -0.218281,0.277734 -0.416719,0.555467 -0.654579,0.813356 -0.87286,0.952209 -1.150673,2.102803 -1.19036,3.312927 z" />
    <g
       transform="matrix(0.26458333,0,0,0.26458333,-45.645264,59.082065)"
       id="Group">
      <path
         style="fill:#f9f6f4"
         inkscape:connector-curvature="0"
         id="Vector_5"
         d="m 231.282,46.1688 c 0.827,0.5258 5.258,1.5023 5.709,1.4271 0.901,0 5.183,-1.1267 5.934,-2.1782 0.526,-0.6761 2.028,-2.8544 2.253,-3.6806 0.301,-1.352 -0.075,-6.3095 -0.15,-6.8353 -0.075,-0.5258 -0.451,-1.5023 -0.676,-1.953 -1.577,-2.6289 -3.605,-3.7557 -6.535,-4.5068 -0.601,-0.1502 -1.127,-0.2253 -1.727,-0.2253 -2.029,0 -5.559,1.6525 -6.686,2.9294 -0.826,0.9014 -2.253,3.3801 -2.253,3.8308 -0.15,2.9294 0.526,5.9339 1.953,8.4878 0.526,1.1267 1.202,2.1032 2.178,2.7041 z" />
      <path
         style="fill:#f9f6f4"
         inkscape:connector-curvature="0"
         id="Vector_6"
         d="m 255.168,57.4356 c 0,-0.0751 0,-0.0751 -0.075,-0.1502 -0.901,-2.0281 -2.403,-3.6054 -2.704,-4.2815 -1.953,-1.5773 -2.779,-1.4271 -6.61,-2.4787 -5.032,-0.6009 -12.469,-0.1502 -17.201,0.676 -2.103,0.3005 -3.605,0.9014 -3.605,0.9014 0,0 -3.23,0.9013 -5.408,2.8543 -0.526,0.4507 -0.977,1.2769 -1.352,2.3285 0,0 0,0 0.075,0.0751 2.629,2.7792 5.558,5.1077 8.938,6.9856 2.103,1.2018 4.282,2.1031 6.76,2.3285 2.254,0.2253 4.507,0.0751 6.686,-0.2254 6.309,-0.9013 11.191,-3.7556 14.496,-9.0136 z" />
    </g>
    <path
       inkscape:connector-curvature="0"
       style="fill:#6a778a;stroke-width:0.26458332"
       id="Union"
       d="m 19.231099,72.563724 c 0.06271,-0.20066 -0.04921,-0.414179 -0.249767,-0.476885 -0.200819,-0.06271 -0.414073,0.04913 -0.476779,0.249793 l -0.08969,0.286861 -0.366448,0.714534 c -0.211666,0.272996 -0.40587,0.581051 -0.654843,0.821081 -0.05794,0.05588 -0.137584,0.131233 -0.224367,0.209735 -0.08758,0.07901 -0.179123,0.158432 -0.261938,0.223705 -0.05212,0.04098 -0.0926,0.06998 -0.121708,0.08903 -0.03863,5.83e-4 -0.08705,8e-5 -0.137583,-0.0011 l -0.0127,-2.91e-4 -0.907256,-1.403411 -0.164307,-0.785337 c -0.04313,-0.205766 -0.244739,-0.337661 -0.450585,-0.294613 -0.205846,0.04307 -0.337608,0.244819 -0.294481,0.450585 l 0.178858,0.854578 c 0.0095,0.04577 0.02752,0.08938 0.05292,0.12864 l 1.053306,1.629648 c 0.0717,0.110993 0.191559,0.168646 0.32094,0.174493 l 0.0032,1.32e-4 c 0.01402,0.176213 0.03387,0.404151 0.05874,0.650663 0.05424,0.536628 0.135996,1.199859 0.245533,1.593956 0.0066,0.02358 0.01535,0.04646 0.02619,0.06834 0.155575,0.311177 0.400315,0.743691 0.682625,1.12649 0.141288,0.1914 0.297656,0.378063 0.462756,0.532474 0.161132,0.150601 0.353748,0.292285 0.569119,0.36158 0.0082,0.0026 0.01614,0.0049 0.02434,0.0069 0.401638,0.100436 0.675217,0.16129 0.850106,0.197327 0.08758,0.01802 0.150813,0.02987 0.192882,0.03736 0.05953,0.01053 0.118004,0.0177 0.178594,0.0114 0.01138,-0.0012 0.02778,-0.003 0.04842,-0.0054 0.0418,-0.0047 0.10107,-0.01185 0.173566,-0.02154 0.144727,-0.01929 0.343694,-0.04897 0.559065,-0.09049 0.214312,-0.0413 0.451114,-0.09551 0.669925,-0.165021 0.207962,-0.06612 0.431535,-0.15576 0.602191,-0.281464 l 0.689505,-0.472889 -0.430477,-0.627883 c -0.235744,0.161554 -0.480219,0.314986 -0.708819,0.486383 -0.06694,0.05035 -0.195263,0.110649 -0.383117,0.170286 -0.179917,0.0572 -0.385233,0.104828 -0.583406,0.143034 -0.19685,0.03797 -0.380736,0.06543 -0.515408,0.0834 -0.06721,0.009 -0.121709,0.0155 -0.159015,0.01976 l -0.0074,8.47e-4 -5.3e-4,-8e-5 c -0.03466,-0.0062 -0.09102,-0.01667 -0.172244,-0.03344 -0.160881,-0.03306 -0.419379,-0.09039 -0.804347,-0.186489 -0.06271,-0.0226 -0.155046,-0.07959 -0.27305,-0.189786 -0.119857,-0.112051 -0.245534,-0.259503 -0.370153,-0.428307 -0.239447,-0.324485 -0.454289,-0.699374 -0.597164,-0.981128 -0.0852,-0.328428 -0.159015,-0.904584 -0.212196,-1.432058 -0.02619,-0.260641 -0.04683,-0.500591 -0.06085,-0.67818 0.06853,-0.04342 0.135996,-0.09379 0.195263,-0.140388 0.1016,-0.08006 0.207168,-0.172058 0.30136,-0.256989 0.09446,-0.08546 0.180181,-0.166635 0.241829,-0.226272 0.03122,-0.0299 0.05636,-0.05456 0.07408,-0.07189 l 0.02037,-0.02029 0.0079,-0.0078 c 0.01138,-0.01132 0.02196,-0.02334 0.03175,-0.03598 l 0.61595,-0.794968 c 0.01455,-0.0186 0.02725,-0.03852 0.03783,-0.05948 l 0.397402,-0.775024 c 0.01005,-0.01932 0.01826,-0.03945 0.02461,-0.06017 z" />
    <path
       inkscape:connector-curvature="0"
       style="fill:#d2dddc;stroke-width:0.26458332"
       id="Vector_7"
       d="m 21.334536,77.298548 c 0,0 -0.178594,0.847778 0.156104,1.606312 0.446088,0.646985 0.914665,0.937022 1.940984,0.892386 1.026318,-0.04461 1.494631,-0.624654 1.762389,-1.115483 0.08943,-0.513133 0.02249,-1.40552 -0.133879,-1.7848 -0.356923,-0.580046 -0.579967,-0.847778 -1.271587,-0.914691 -0.691621,-0.06694 -1.160198,0 -1.651,0.245401 -0.490802,0.356976 -0.803011,1.070875 -0.803011,1.070875 z" />
    <path
       inkscape:connector-curvature="0"
       style="fill:#6a778a;stroke-width:0.26458332"
       id="Vector_8"
       d="m 22.49447,76.964009 c 0,0 -0.379148,0.60235 -0.312209,1.093179 0.133879,0.490802 0.267759,0.691594 0.847725,0.847777 0.580231,0.156158 0.870215,0 1.160198,-0.334645 0.133879,-0.267731 0.379148,-0.580072 0.267758,-1.003961 -0.08943,-0.379254 -0.513291,-0.691594 -0.892439,-0.825474 -0.579967,-0.04461 -1.071033,0.223124 -1.071033,0.223124 z" />
  </g>
</svg>
