<svg width="132" height="132" fill="none" xmlns="http://www.w3.org/2000/svg">
  <path d="M63.556 50.006c-.56-1.257-1.258-2.467-2.142-3.445-.931-.978-2.002-1.77-3.26-2.328-1.257-.559-2.654-.792-4.097-.792-.978 0-1.816.14-2.747.373-.885.233-1.723.559-2.468.977v-8.334h-5.82l.047 22.722c.745-.745 1.676-1.164 2.793-1.164.652 0 1.258.14 1.77.419.465.186.884.512 1.257.838v-4.796c0-.698.14-1.397.419-2.048.28-.652.652-1.211 1.117-1.677a5.073 5.073 0 011.63-1.117c.605-.28 1.304-.42 2.049-.42.745 0 1.397.14 2.002.42.558.28.978.698 1.397 1.21a4.29 4.29 0 01.791 1.677 8.57 8.57 0 01.233 1.909v10.709H64.3v-10.71a11.478 11.478 0 00-.744-4.423z" fill="#6760D2"/>
  <path d="M43.022 62.205c0-1.63 1.257-2.933 2.84-2.933 1.537 0 2.84 1.304 2.84 2.933 0 1.63-1.256 2.934-2.84 2.934-1.536.046-2.84-1.257-2.84-2.934zM80.504 38.692v5.727c-.745-.419-1.583-.698-2.468-.978-.931-.233-1.816-.372-2.747-.372-1.49 0-2.933.326-4.284.884a11.064 11.064 0 00-3.492 2.375c-.978 1.024-1.77 2.142-2.374 3.539-.606 1.35-.885 2.747-.885 4.33 0 1.536.326 2.98.885 4.33a10.757 10.757 0 002.374 3.539c.978.977 2.142 1.816 3.492 2.374 1.304.606 2.747.885 4.284.885 1.909 0 3.678-.42 5.215-1.304V65h5.773V38.506c-.745.698-1.816 1.21-2.98 1.21-1.07 0-2.048-.372-2.793-1.024zm-.42 17.46a5.073 5.073 0 01-1.117 1.63c-.419.466-1.024.838-1.63 1.118-.651.279-1.257.419-2.048.419-.699 0-1.397-.14-2.049-.42-.652-.279-1.164-.698-1.63-1.117-.465-.419-.838-1.024-1.117-1.63a4.883 4.883 0 01-.419-2.048c0-.699.14-1.397.42-2.049.278-.652.65-1.21 1.117-1.676.419-.466.977-.838 1.63-1.118a5.04 5.04 0 012.048-.419c.698 0 1.443.14 2.049.42.651.279 1.163.651 1.63 1.117a5.285 5.285 0 011.117 1.676c.326.652.419 1.304.419 2.049 0 .745-.14 1.443-.42 2.048z" fill="#FFDE70"/>
  <path d="M86.324 35.526a2.921 2.921 0 01-2.933 2.933 2.921 2.921 0 01-2.934-2.933 2.921 2.921 0 012.934-2.933 2.921 2.921 0 012.933 2.933z" fill="#6760D2"/>
  <g fill="#2D3A67">
    <path d="M10.709 94.193a.423.423 0 00-.14-.326c-.093-.14-.233-.187-.465-.187-.28 0-.466.14-.606.42-.046.14-.093.372-.093.605 0 .233.047.419.093.558.094.28.28.42.56.42.185 0 .325-.047.418-.14.093-.093.14-.233.14-.42h.885c0 .28-.094.513-.28.746-.28.372-.652.559-1.164.559-.512 0-.931-.14-1.164-.466-.233-.326-.372-.699-.372-1.21 0-.56.14-.978.419-1.304.279-.326.652-.466 1.117-.466.42 0 .745.093 1.024.28.28.186.42.512.466.977h-.838v-.046zM14.9 95.869c-.28.326-.699.512-1.258.512-.558 0-.977-.186-1.257-.512-.28-.326-.419-.745-.419-1.21 0-.466.14-.885.42-1.211.279-.326.698-.512 1.256-.512.56 0 .978.186 1.258.512.279.326.419.745.419 1.21-.047.466-.187.885-.42 1.21zm-.699-.466c.14-.186.186-.419.186-.745s-.046-.558-.186-.745a.664.664 0 00-.559-.279.664.664 0 00-.558.28c-.14.186-.187.418-.187.744s.047.559.187.745c.14.186.326.28.558.28a.664.664 0 00.56-.28zM16.762 96.288h-.838v-4.423h.838v4.423zM18.485 96.288h-.838v-4.423h.838v4.423zM21.418 93.122c.233.093.419.28.559.465.14.187.232.42.279.652 0 .14.047.373.047.652h-2.375c0 .326.14.559.326.698.14.094.28.14.465.14.187 0 .373-.046.466-.14.047-.046.14-.14.186-.232h.885c0 .186-.14.372-.326.605-.28.326-.698.466-1.21.466-.42 0-.839-.14-1.165-.42-.325-.279-.512-.698-.512-1.303 0-.559.14-.978.466-1.304.28-.28.698-.465 1.164-.465.28 0 .512.046.745.186zm-1.257.698c-.14.14-.186.28-.233.512h1.443c0-.232-.093-.419-.232-.512-.14-.14-.326-.186-.513-.186a.711.711 0 00-.465.186zM24.63 94.193a.423.423 0 00-.139-.326c-.093-.14-.233-.187-.465-.187-.28 0-.466.14-.606.42-.046.14-.093.372-.093.605 0 .233.047.419.093.558.093.28.28.42.559.42.186 0 .326-.047.419-.14.093-.093.14-.233.14-.42h.884c0 .28-.093.513-.28.746-.279.372-.65.559-1.163.559-.512 0-.931-.14-1.164-.466-.233-.326-.373-.699-.373-1.21 0-.56.14-.978.42-1.304.279-.326.651-.466 1.117-.466.419 0 .745.093 1.024.28.28.186.42.512.466.977h-.838v-.046zM25.748 93.68v-.605h.466v-.885h.838v.885h.512v.605h-.512v1.723c0 .14 0 .233.046.233.047 0 .14.047.326.047h.187v.651h-.42c-.418 0-.698-.046-.837-.186-.094-.093-.14-.233-.14-.465V93.68h-.466zM29.007 92.656h-.884v-.791h.884v.791zm-.884.373h.884v3.259h-.884v-3.26zM31.196 91.865h.186v.698h-.233c-.093 0-.186 0-.233.093-.046.093-.046.093-.046.186v.28h.559v.605h-.56v2.608h-.837v-2.608h-.466v-.605h.466v-.186c0-.326.046-.606.186-.699.14-.186.42-.28.885-.28 0-.139.046-.092.093-.092zM35.293 93.075c.14.093.28.186.373.373V91.91h.884v4.377h-.838v-.466c-.14.186-.28.326-.419.42-.14.092-.326.139-.559.139-.372 0-.698-.14-.977-.466-.28-.326-.373-.698-.373-1.164 0-.558.14-.977.373-1.303.232-.326.605-.466 1.024-.466a.647.647 0 01.512.093zm.186 2.328c.14-.186.187-.419.187-.698 0-.42-.093-.699-.28-.838a.751.751 0 00-.419-.14.664.664 0 00-.559.28 1.542 1.542 0 00-.186.698c0 .28.047.558.186.698.14.14.28.28.56.28.232 0 .418-.094.511-.28zM37.994 91.865l-.14 1.816h-.512l-.14-1.816h.792zM39.623 92.656h-.884v-.791h.884v.791zm-.838.373h.885v3.259h-.885v-3.26zM43.069 93.215c.232.186.326.465.326.885v2.188h-.885v-2.002c0-.186 0-.28-.047-.373-.093-.186-.232-.233-.465-.233-.28 0-.466.14-.605.373-.047.14-.094.28-.094.512v1.77h-.838v-3.26h.838v.466c.093-.186.233-.28.326-.373.187-.14.373-.186.652-.186.326-.046.605.047.792.233zM45.909 93.075c.14.093.28.186.373.373V91.91h.884v4.377h-.838v-.466c-.14.186-.28.326-.419.42-.14.092-.326.139-.559.139-.372 0-.698-.14-.977-.466-.28-.326-.373-.698-.373-1.164 0-.558.14-.977.373-1.303.232-.326.605-.466 1.024-.466a.647.647 0 01.512.093zm.233 2.328c.14-.186.186-.419.186-.698 0-.42-.093-.699-.28-.838a.751.751 0 00-.418-.14.664.664 0 00-.56.28 1.542 1.542 0 00-.185.698c0 .28.046.558.186.698.14.14.28.28.559.28a.644.644 0 00.512-.28zM50.053 93.122c.233.093.419.28.559.465.14.187.232.42.279.652 0 .14.047.373.047.652h-2.375c0 .326.14.559.326.698.14.094.28.14.465.14.187 0 .373-.046.466-.14.047-.046.14-.14.186-.232h.885c0 .186-.14.372-.326.605-.28.326-.698.466-1.21.466-.42 0-.839-.14-1.165-.42-.325-.279-.512-.698-.512-1.303 0-.559.14-.978.466-1.304.28-.28.698-.465 1.164-.465.28 0 .512.046.745.186zm-1.257.698c-.14.14-.187.28-.233.512h1.443c0-.232-.093-.419-.233-.512-.14-.14-.326-.186-.512-.186a.711.711 0 00-.465.186zm1.49-2.142l-.885.885h-.605l.558-.885h.932zM54.057 93.401c.28.28.42.699.42 1.257 0 .559-.14 1.025-.373 1.304-.233.28-.606.466-1.025.466-.279 0-.465-.047-.651-.187a2.023 2.023 0 01-.28-.326v1.677h-.838v-4.517h.838v.466c.093-.14.186-.233.28-.326.186-.14.419-.233.698-.233.326 0 .652.14.931.42zm-.652.605c-.093-.186-.326-.279-.558-.279-.326 0-.513.14-.652.42-.047.139-.093.372-.093.604 0 .373.093.652.326.792.14.093.279.14.419.14a.664.664 0 00.558-.28c.14-.186.187-.419.187-.745 0-.233-.047-.465-.187-.652zM57.177 93.122c.233.093.419.28.559.465.14.187.232.42.279.652 0 .14.046.373.046.652h-2.374c0 .326.14.559.326.698.14.094.28.14.465.14.187 0 .373-.046.466-.14.046-.046.14-.14.186-.232h.885c0 .186-.14.372-.326.605-.28.326-.699.466-1.21.466-.42 0-.839-.14-1.165-.42-.326-.279-.512-.698-.512-1.303 0-.559.14-.978.466-1.304.28-.28.698-.465 1.164-.465.28 0 .512.046.745.186zm-1.257.698c-.14.14-.187.28-.233.512h1.443c0-.232-.093-.419-.233-.512-.14-.14-.326-.186-.512-.186a.711.711 0 00-.465.186zM61.088 93.215c.233.186.326.465.326.885v2.188h-.885v-2.002c0-.186 0-.28-.047-.373-.093-.186-.232-.233-.465-.233-.28 0-.466.14-.605.373-.047.14-.094.28-.094.512v1.77h-.838v-3.26h.838v.466c.094-.186.233-.28.326-.373.187-.14.373-.186.652-.186.326-.046.559.047.792.233zM63.928 93.075c.14.093.28.186.373.373V91.91h.884v4.377h-.838v-.466c-.14.186-.28.326-.419.42-.14.092-.326.139-.559.139-.372 0-.698-.14-.977-.466-.28-.326-.373-.698-.373-1.164 0-.558.14-.977.373-1.303.232-.326.605-.466 1.024-.466a.646.646 0 01.512.093zm.186 2.328c.14-.186.186-.419.186-.698 0-.42-.093-.699-.279-.838a.751.751 0 00-.419-.14.664.664 0 00-.559.28 1.542 1.542 0 00-.186.698c0 .28.047.558.186.698.14.14.28.28.56.28.232 0 .418-.094.511-.28zM67.234 94.286c.14 0 .28-.047.326-.093.14-.047.186-.14.186-.233 0-.14-.047-.233-.14-.28a.929.929 0 00-.419-.093c-.186 0-.326.047-.419.14l-.14.28h-.838c0-.28.094-.513.233-.699.233-.28.606-.42 1.164-.42.373 0 .699.094.931.234.233.14.42.419.42.791v1.863c0 .093 0 .186.046.233.047.046.047.093.14.093v.14h-.931c-.047-.047-.047-.14-.047-.187 0-.047 0-.14-.047-.186-.14.14-.232.233-.419.326-.186.093-.372.14-.605.14-.28 0-.559-.094-.745-.233a.948.948 0 01-.28-.699c0-.419.14-.698.466-.884.187-.094.42-.187.745-.187l.373-.046zm.512.419c-.047.046-.093.046-.186.093-.047 0-.14.046-.233.046l-.186.047c-.187.047-.326.093-.373.093-.14.093-.186.186-.186.373 0 .14.047.233.14.326.093.046.186.093.279.093a.939.939 0 00.512-.14c.14-.093.233-.326.233-.605v-.326zM71.936 93.215c.233.186.326.465.326.885v2.188h-.884v-2.002c0-.186 0-.28-.047-.373-.093-.186-.233-.233-.466-.233-.279 0-.465.14-.605.373-.046.14-.093.28-.093.512v1.77h-.838v-3.26h.838v.466c.093-.186.233-.28.326-.373.186-.14.373-.186.652-.186.326-.046.605.047.791.233zM72.728 93.68v-.605h.466v-.885h.838v.885h.512v.605h-.512v1.723c0 .14 0 .233.046.233.047.047.14.047.326.047h.187v.651h-.42c-.419 0-.698-.046-.838-.186-.093-.093-.14-.233-.14-.465V93.68h-.465zM75.755 95.263c0 .14.046.28.14.326.092.094.279.187.605.187.186 0 .279-.047.419-.093a.256.256 0 00.14-.233.256.256 0 00-.14-.233c-.093-.047-.373-.14-.885-.28-.373-.093-.652-.186-.792-.325-.14-.14-.232-.326-.232-.606 0-.279.14-.558.372-.791.233-.233.559-.326.978-.326.419 0 .745.093.978.233.279.14.419.465.419.838h-.838c0-.093-.047-.186-.093-.28a.62.62 0 00-.466-.186.93.93 0 00-.42.093c-.092.047-.139.14-.139.187 0 .093.047.186.14.232.093.047.372.14.885.233.325.093.605.186.745.373.186.186.232.372.232.605 0 .326-.14.605-.372.791-.233.187-.605.326-1.118.326-.512 0-.884-.093-1.117-.326-.233-.232-.373-.512-.373-.838h.932v.093zM81.947 93.075c.14.093.28.186.373.373V91.91h.884v4.377h-.838v-.466c-.14.186-.28.326-.419.42-.14.092-.326.139-.559.139-.372 0-.698-.14-.977-.466-.28-.326-.373-.698-.373-1.164 0-.558.14-.977.373-1.303.232-.326.605-.466 1.024-.466.186-.046.326 0 .512.093zm.186 2.328c.14-.186.187-.419.187-.698 0-.42-.094-.699-.28-.838a.751.751 0 00-.419-.14.664.664 0 00-.559.28 1.542 1.542 0 00-.186.698c0 .28.047.558.186.698.14.186.28.28.56.28.232 0 .372-.094.511-.28zM84.787 93.029v1.955c0 .186 0 .326.047.42.093.186.233.232.465.232.28 0 .466-.14.606-.373.046-.14.093-.279.093-.512v-1.769h.884v3.26h-.838v-.466s-.046.046-.046.093c-.047.046-.047.093-.093.14-.14.14-.28.186-.373.232-.093.047-.28.047-.419.047-.465 0-.791-.186-.978-.512-.093-.186-.14-.466-.14-.838v-1.956h.792v.047zM92.004 93.215c.233.186.326.465.326.885v2.188h-.885v-2.002c0-.186 0-.28-.046-.373-.093-.186-.233-.233-.466-.233-.279 0-.465.14-.605.373-.047.14-.093.28-.093.512v1.77h-.838v-3.26h.838v.466c.093-.186.233-.28.326-.373.186-.14.372-.186.652-.186.28-.046.558.047.791.233zM93.96 93.029v1.955c0 .186 0 .326.046.42.093.186.233.232.466.232.28 0 .466-.14.605-.373.047-.14.093-.279.093-.512v-1.769h.885v3.26h-.838v-.466s-.047.046-.047.093c-.046.046-.046.093-.093.14-.14.14-.28.186-.372.232-.093.047-.28.047-.42.047-.465 0-.79-.186-.977-.512-.093-.186-.14-.466-.14-.838v-1.956h.792v.047zM100.897 93.029c.14.046.28.14.373.279.093.093.14.233.186.42 0 .092.047.278.047.465v2.048h-.885v-2.095c0-.14 0-.233-.047-.326a.488.488 0 00-.419-.233c-.232 0-.419.093-.465.28-.047.093-.047.233-.047.372v1.956h-.931v-1.956c0-.186 0-.326-.047-.419a.489.489 0 00-.419-.233c-.232 0-.419.093-.512.233-.046.093-.046.233-.046.42v1.955h-.838v-3.26h.838v.466c.093-.186.186-.28.279-.372.186-.14.373-.187.652-.187.233 0 .466.047.605.187.14.093.233.233.28.372a.913.913 0 01.419-.419 1.29 1.29 0 01.605-.14c.093.14.233.14.372.187zM104.389 93.122c.233.093.419.28.559.465.14.187.233.42.279.652 0 .14.047.373.047.652h-2.375c0 .326.14.559.326.698.14.094.28.14.466.14s.372-.046.466-.14c.046-.046.139-.14.186-.232h.884c0 .186-.139.372-.325.605-.28.326-.699.466-1.211.466-.419 0-.838-.14-1.164-.42-.326-.279-.512-.698-.512-1.303 0-.559.139-.978.465-1.304.28-.28.699-.465 1.164-.465.28 0 .513.046.745.186zm-1.257.698c-.139.14-.186.28-.233.512h1.444c0-.232-.093-.419-.233-.512-.14-.14-.326-.186-.512-.186s-.326.093-.466.186zm1.49-2.142l-.884.885h-.606l.559-.885h.931zM107.509 92.936h.093v.884h-.233c-.326 0-.558.093-.698.326-.047.14-.093.326-.093.559v1.536h-.885v-3.259h.792v.559c.139-.233.232-.373.326-.466.186-.046.372-.14.698-.14-.047 0-.047 0 0 0zM108.952 92.656h-.884v-.791h.884v.791zm-.884.373h.884v3.259h-.884v-3.26zM111.606 93.168c.093.093.187.187.28.373v-.466h.838v4.517h-.838v-1.677c-.047.14-.187.233-.326.373-.14.093-.373.14-.652.14-.373 0-.698-.14-.978-.466-.279-.28-.419-.698-.419-1.21 0-.56.14-.978.419-1.304.28-.326.605-.466.978-.466a.89.89 0 01.698.186zm.14 2.096a1.29 1.29 0 00.14-.606 1.69 1.69 0 00-.093-.512c-.14-.28-.326-.419-.652-.419-.233 0-.373.093-.512.233-.14.186-.187.419-.187.745 0 .233.047.419.093.559.094.279.326.419.606.419.279 0 .512-.14.605-.42zM114.353 93.029v1.955c0 .186 0 .326.047.42.093.186.233.232.465.232.28 0 .466-.14.606-.373.046-.14.093-.279.093-.512v-1.769h.885v3.26h-.839v-.466s-.046.046-.046.093c-.047.046-.047.093-.093.14-.14.14-.28.186-.373.232-.093.047-.279.047-.419.047-.465 0-.791-.186-.978-.512-.093-.186-.139-.466-.139-.838v-1.956h.791v.047zM119.336 93.122c.232.093.419.28.558.465.14.187.233.42.28.652 0 .14.046.373.046.652h-2.374c0 .326.139.559.326.698.139.094.279.14.465.14s.373-.046.466-.14c.046-.046.139-.14.186-.232h.885c0 .186-.14.372-.326.605-.28.326-.699.466-1.211.466-.419 0-.838-.14-1.164-.42-.326-.279-.512-.698-.512-1.303 0-.559.14-.978.466-1.304.279-.28.698-.465 1.164-.465.279 0 .512.046.745.186zm-1.258.698c-.139.14-.186.28-.232.512h1.443c0-.232-.093-.419-.233-.512-.139-.093-.326-.186-.512-.186s-.326.093-.466.186z"/>
  </g>
  <path d="M12.152 74.358v4.795h4.237v-4.749h3.492v13.363H16.39v-5.075h-4.237v5.075H8.66V74.404h3.492v-.046zM21.697 87.72l6.24-13.362h1.582l6.286 13.363h-3.492l-.838-1.77h-5.448l-.791 1.77h-3.539zm5.68-4.702h2.748l-1.35-2.933-1.397 2.933zM37.621 74.358h5.634c2.7 0 4.935 2.188 4.935 4.935 0 2.7-2.188 4.889-4.842 4.889H41.16v3.539h-3.492V74.358h-.047zm3.492 6.798h2.189c1.07 0 1.909-.839 1.909-1.91 0-1.07-.838-1.908-1.91-1.908h-2.188v3.818zM50.053 74.358h5.634c2.7 0 4.935 2.188 4.935 4.935 0 2.7-2.188 4.889-4.842 4.889h-2.235v3.539h-3.492V74.358zm3.492 6.798h2.188c1.071 0 1.91-.839 1.91-1.91 0-1.07-.839-1.908-1.91-1.908h-2.188v3.818zM69.655 82.832v4.935h-3.492v-4.935l-4.889-8.428h4.05l2.562 4.47 2.56-4.47h4.051l-4.842 8.428z" fill="#6760D2"/>
  <path d="M84.089 74.358h4.935c3.679 0 6.705 2.98 6.705 6.704a6.677 6.677 0 01-6.705 6.705H84.09v-13.41zm3.492 9.917h1.49a3.17 3.17 0 003.166-3.166c0-1.723-1.443-3.166-3.166-3.166h-1.49v6.332zM98.104 74.358h8.287v2.886h-4.795v2.189h4.237v2.98h-4.237v2.467h4.795v2.887h-8.287v-13.41zM121.803 74.358l-6.239 13.363h-1.583l-6.239-13.363h3.538l3.492 7.59 3.539-7.59h3.492z" fill="#FFDE70"/>
</svg>
