<?xml version="1.0" encoding="utf-8"?>
<!-- Generator: Adobe Illustrator 23.0.1, SVG Export Plug-In . SVG Version: 6.00 Build 0)  -->
<svg version="1.1" id="Calque_1" xmlns="http://www.w3.org/2000/svg" xmlns:xlink="http://www.w3.org/1999/xlink" x="0px" y="0px"
	 viewBox="0 0 1500 538" style="enable-background:new 0 0 1500 538;" xml:space="preserve">
<style type="text/css">
	.st0{fill:#FFFFFF;}
	.st1{fill:#2C2B73;}
	.st2{fill:#CDAD46;}
	.st3{opacity:0.1;fill:#0E131F;}
	.st4{opacity:0.1;fill:#0B1736;}
	.st5{fill:#E0B638;}
</style>
<g>
	<path class="st1" d="M913.41,352.42c6.53,0,11.21-2.33,14.01-7l21.38,23.12c-3.97,4.68-9.11,8.3-15.41,10.86
		c-6.31,2.57-12.5,3.86-18.57,3.86c-16.12,0-28.16-4.5-36.09-13.5c-7.95-8.99-11.91-22.13-11.91-39.42V224.44h-19.62V197.1h19.62
		v-38.89l30.83-10.52v49.42h40.65v27.33h-40.65v105.91C897.64,345.06,902.9,352.42,913.41,352.42z"/>
	<path class="st1" d="M1061.28,329.99c0,8.41-1.35,15.94-4.03,22.61c-2.69,6.65-6.37,12.25-11.04,16.81
		c-4.68,4.56-10.22,8.01-16.65,10.34c-6.43,2.33-13.26,3.51-20.5,3.51c-7.47,0-14.36-1.18-20.67-3.51
		c-6.31-2.33-11.8-5.79-16.47-10.34c-4.67-4.56-8.35-10.16-11.04-16.81c-2.69-6.66-4.03-14.2-4.03-22.61V213.31
		c0-8.41,1.34-15.82,4.03-22.24c2.68-6.43,6.42-11.86,11.21-16.3c4.79-4.44,10.46-7.76,16.99-9.99c6.54-2.21,13.55-3.33,21.03-3.33
		c7.23,0,14.06,1.22,20.49,3.68c6.43,2.45,12.09,6.07,17,10.85c4.9,4.79,8.76,10.64,11.56,17.53c2.8,6.89,4.2,14.9,4.2,24
		c0,14.49-1.45,26.64-4.37,36.44c-2.93,9.82-7.42,18.46-13.5,25.93c-6.07,7.49-13.9,14.25-23.47,20.33
		c-9.58,6.07-21.02,12.5-34.35,19.27v10.51c0,7.24,1.94,12.79,5.79,16.64c3.85,3.86,9.05,5.79,15.59,5.79
		c6.07,0,11.1-1.92,15.07-5.79c3.97-3.85,5.96-9.4,5.96-16.64v-3.51l31.19-10.16V329.99z M1032.55,219.26
		c0-10.74-2.22-18.22-6.66-22.42c-4.44-4.2-9.7-6.31-15.76-6.31c-6.31,0-11.62,1.94-15.94,5.79c-4.33,3.85-6.49,9.52-6.49,16.99
		v72.18c9.35-4.43,16.94-8.81,22.78-13.13c5.84-4.32,10.39-9.06,13.67-14.19c3.27-5.14,5.49-10.86,6.66-17.17
		C1031.96,234.68,1032.55,227.44,1032.55,219.26z"/>
	<path class="st1" d="M1189.53,383.6h-20.33l-7-15.41c-2.11,3.04-5.55,6.31-10.34,9.81c-4.79,3.51-12.21,5.26-22.25,5.26
		c-14.01,0-25.06-4.91-33.11-14.73c-8.06-9.81-12.09-23.83-12.09-42.05V164.25h30.84v165.74c0,7.24,2.04,12.79,6.13,16.64
		c4.08,3.86,9.29,5.79,15.6,5.79c6.06,0,11.21-1.81,15.41-5.43c4.21-3.61,6.31-9.28,6.31-16.99V164.25h30.84V383.6z"/>
	<path class="st1" d="M1266.27,161.45c8.17,0,14.24,1.98,18.22,5.96l-10.51,27.68c-1.64-1.86-4.79-2.8-9.46-2.8
		c-5.38,0-10.16,2.28-14.36,6.83c-4.21,4.56-6.31,10.34-6.31,17.35V383.6h-30.84V164.25h20.33l7,13.67
		c1.87-3.73,4.96-7.42,9.28-11.04C1253.94,163.26,1259.49,161.45,1266.27,161.45z"/>
	<path class="st1" d="M1399.43,324.39c0,7.71-1.11,15.07-3.33,22.07c-2.22,7-5.61,13.26-10.17,18.75
		c-4.56,5.5-10.28,9.87-17.16,13.14c-6.9,3.27-15.13,4.91-24.71,4.91c-7.93,0-15.18-1.29-21.72-3.86
		c-6.54-2.57-12.21-6.18-16.99-10.86c-4.79-4.66-8.47-10.28-11.05-16.81c-2.57-6.54-3.85-13.78-3.85-21.73v-14.71l30.84,6.65v8.06
		c0,6.78,2.1,12.21,6.3,16.3c4.21,4.08,9.7,6.13,16.47,6.13c15.89,0,23.84-7.47,23.84-22.42c0-5.6-0.71-10.34-2.11-14.19
		c-1.4-3.86-3.39-7.41-5.96-10.69c-3.74-4.2-7.71-8.05-11.91-11.56c-4.2-3.51-8.47-7-12.79-10.51c-4.33-3.51-8.59-7.12-12.79-10.86
		c-4.2-3.73-8.18-7.82-11.91-12.27c-5.14-6.06-9.29-12.84-12.45-20.32c-3.14-7.47-4.73-16.12-4.73-25.93
		c0-7.71,1.28-14.77,3.86-21.19c2.57-6.43,6.18-11.92,10.85-16.48c4.67-4.56,10.22-8.11,16.65-10.68
		c6.42-2.57,13.48-3.85,21.19-3.85c16.13,0,28.5,4.79,37.15,14.36c8.64,9.58,12.96,22.07,12.96,37.49v14.73l-30.13-7.01v-7.71
		c0-7-1.92-12.55-5.79-16.64c-3.85-4.08-8.93-6.14-15.24-6.14c-6.54,0-11.62,2.11-15.24,6.31c-3.63,4.2-5.43,9.93-5.43,17.17
		c0,8.18,2.57,15.54,7.71,22.07c5.13,6.54,11.32,12.85,18.56,18.93c7.24,6.07,14.66,12.32,22.25,18.75
		c7.59,6.43,13.84,13.61,18.75,21.55c2.57,4.2,4.56,8.82,5.96,13.84C1398.72,314.17,1399.43,319.25,1399.43,324.39z"/>
	<g>
		<path class="st1" d="M256.15,383.6h-30.84l0-278.38h30.84L256.15,383.6z"/>
		<path class="st1" d="M453.43,383.6h-30.84l0-169.06c0-7.47-1.81-13.14-5.43-16.99s-8.59-5.79-14.89-5.79
			c-6.31,0-11.22,1.94-14.73,5.79c-3.5,3.85-5.25,9.52-5.25,16.99l0,169.06H351.1l0-169.06c0-7.47-1.81-13.14-5.42-16.99
			c-3.63-3.85-8.47-5.79-14.54-5.79c-13.55,0-20.33,7.59-20.33,22.78l0,169.06h-30.83l0-218.11h20.32l7,10.16
			c6.07-8.64,15.18-12.96,27.33-12.96c9.35,0,16.59,1.87,21.73,5.6c5.13,3.74,8.76,8.88,10.86,15.42
			c3.26-6.78,7.76-11.98,13.48-15.59c5.72-3.63,14.78-5.43,27.16-5.43c6.31,0,12.2,1.22,17.7,3.68c5.49,2.45,10.28,5.9,14.36,10.33
			c4.08,4.45,7.36,9.82,9.82,16.13c2.45,6.3,3.68,13.31,3.68,21.02L453.43,383.6z"/>
		<path class="st1" d="M583.08,331.22c0,9.35-1.29,17.35-3.86,24.01c-2.58,6.65-6.02,12.15-10.34,16.47
			c-4.32,4.32-9.28,7.53-14.89,9.63c-5.6,2.1-11.34,3.15-17.17,3.15c-7,0-12.84-1.11-17.52-3.34c-4.67-2.21-8.65-5.08-11.91-8.58
			v55.97l-30.84,10.95V165.48h20.33l7,10.16c3.27-3.27,7.41-6.25,12.44-8.94c5.03-2.67,11.39-4.02,19.1-4.02
			c15.42,0,27.22,4.61,35.4,13.84c8.17,9.23,12.27,21.78,12.27,37.67V331.22z M552.24,214.54c0-7-2.16-12.55-6.48-16.64
			c-4.33-4.08-9.63-6.14-15.94-6.14s-11.62,2.05-15.94,6.14c-4.33,4.08-6.48,9.63-6.48,16.64v116.69c0,7.47,2.15,13.09,6.48,16.82
			c4.32,3.74,9.63,5.6,15.94,5.6s11.61-1.86,15.94-5.6c4.32-3.73,6.48-9.35,6.48-16.82V214.54z"/>
	</g>
	<path class="st5" d="M810.83,263.54c0,0-0.43-21.44,1-36.84c1.79-19.29,12.16-29.6,35.36-29.6v27.33
		c-4.73,0.38-5.52,4.66-5.52,11.67c0,7.24,0,17.27,0,17.27L810.83,263.54z"/>
	<path class="st1" d="M713.42,383.6h-20.33l-7-17.51c-2.58,4.67-6.54,8.7-11.91,12.09c-5.38,3.38-12.5,5.08-21.38,5.08
		c-5.6,0-11.22-1.06-16.82-3.15c-5.6-2.11-10.63-5.43-15.07-9.99c-4.44-4.56-8.01-10.34-10.68-17.34c-2.69-7-4.03-15.54-4.03-25.58
		c0-10.51,1.4-19.8,4.2-27.86c2.8-8.06,6.42-15.25,10.86-21.55c4.43-6.31,9.45-11.98,15.07-17c5.6-5.02,11.21-9.57,16.82-13.67
		c5.6-4.08,10.97-8,16.12-11.73c5.13-3.74,9.57-7.59,13.31-11.57v-10.51c0-6.77-2.18-24.87-5.09-29.07
		c-2.93-4.2-7.54-6.31-13.85-6.31c-11.91,0-19.51,4.79-22.78,14.37l-25.93-16.82c2.34-3.51,4.85-6.89,7.54-10.16
		s5.96-6.14,9.81-8.59c3.86-2.45,8.35-4.38,13.5-5.79c5.13-1.4,11.22-2.1,18.22-2.1c14.71,0,26.51,4.56,35.4,13.67
		c8.86,9.11,14.03,34.44,14.03,50.79L713.42,383.6z M683.29,263.77c-3.98,2.58-8.65,5.67-14.02,9.28
		c-5.38,3.63-10.51,7.95-15.42,12.97c-4.91,5.03-9.06,10.68-12.44,16.99c-3.39,6.31-5.08,13.43-5.08,21.38
		c0,8.88,1.98,15.76,5.96,20.67c3.97,4.91,9.69,7.36,17.16,7.36c8.18,0,14.2-2.8,18.05-8.41c3.85-5.61,5.79-12.15,5.79-19.62V263.77
		z"/>
	<path class="st5" d="M657.85,383.04c40.37-3.46,55.71-32.61,70.82-52.83c15.23-20.36,25.96-16.83,41.49-12.5l7.02-30.81
		c0,0-32.12-12.1-59.66,10.48c-19.25,15.78-30.26,52.69-59.66,55.03V383.04z"/>
	<path class="st5" d="M714.17,292.52l-1.67-2.18c7.44-5.67,15.4-9.38,23.65-11.04l0.53,2.67
		C728.85,283.56,721.27,287.1,714.17,292.52z"/>
	<path class="st5" d="M722.73,280.31l-1.3-2.42c4.16-2.25,9.13-3.73,14.02-4.16l0.24,2.72
		C731.17,276.85,726.57,278.22,722.73,280.31z"/>
	<path class="st3" d="M713.42,301.16c-12.41,12.66-21.88,33.26-36.88,44.13c0,0,3.06-3.75,4.81-8.88c1.12-3.3,1.51-6.19,1.51-6.19
		c12.18-10.57,19.97-30.11,30.56-38.67L713.42,301.16z"/>
	<path class="st4" d="M736.39,280.46c15.22-3.45,31.47,0.01,40.37,6.3l0,0c-5.69-1.9-21.5-5.68-38.8-0.38L736.39,280.46z"/>
	<path class="st5" d="M629.74,384.88c-5.77-2.17-11.01-5.65-15.57-10.32c-4.56-4.68-8.26-10.67-10.98-17.8l2.57-0.98
		c2.59,6.79,6.07,12.47,10.38,16.89c4.27,4.37,9.16,7.62,14.56,9.66L629.74,384.88z"/>
	<path class="st5" d="M608.82,376.53c-4.56-4.68-8.26-10.67-10.98-17.8l2.57-0.98c2.59,6.79,6.07,12.47,10.38,16.89L608.82,376.53z"
		/>
	<rect x="866.81" y="194.43" class="st3" width="30.83" height="2.67"/>
	<rect x="866.81" y="224.44" class="st3" width="30.83" height="2.67"/>
	<path class="st3" d="M689.01,373.39l2.01,5.02c0,0,16.52-9.2,22.4-18.6v-8.75C713.42,351.05,705.03,363.48,689.01,373.39z"/>
	<rect x="881.54" y="229.83" class="st5" width="35.68" height="2.74"/>
	<rect x="881.54" y="235.18" class="st5" width="17.84" height="2.74"/>
	<path class="st5" d="M853.14,224.44h-5.96V197.1h5.96c7.55,0,13.67,6.12,13.67,13.67v0C866.81,218.32,860.69,224.44,853.14,224.44z
		"/>
	<path class="st5" d="M657.85,352.28c-6.66-0.34-11.9-2.68-15.56-7.22c-2.09-2.58-3.63-5.7-4.62-9.37
		c-1.8-6.69-7.96-11.3-14.89-11.3h0c-9.72,0-17.13,8.88-15.32,18.43c0.71,3.74,1.66,7.1,2.76,9.95c2.67,7,6.25,12.79,10.68,17.35
		c4.44,4.56,9.46,7.88,15.07,9.99c5.6,2.1,11.22,3.15,16.82,3.15c1.77,0,3.42-0.12,5.05-0.25V352.28z"/>
	<path class="st1" d="M788.41,127.58c-6.31,0-11.62,1.94-15.94,5.79c-4.32,3.85-6.48,9.52-6.48,16.99v116.69
		c0,7.24,2.16,12.79,6.48,16.64c4.32,3.86,9.63,5.79,15.94,5.79c6.07,0,11.32-1.86,15.77-5.6c4.43-3.73,6.65-9.35,6.65-16.82v-3.51
		l30.84-10.16v13.67c0,9.11-1.4,16.99-4.2,23.65c-2.81,6.65-6.66,12.15-11.57,16.47c-4.91,4.32-10.57,7.59-16.99,9.81
		c-6.43,2.22-13.26,3.34-20.5,3.34c-7.47,0-14.49-1.18-21.02-3.51c-6.54-2.33-12.21-5.79-16.99-10.34
		c-4.79-4.56-8.53-10.09-11.22-16.64c-2.68-6.53-4.03-14.14-4.03-22.78V150.36c0-9.57,1.35-17.63,4.03-24.18
		c2.68-6.53,6.43-11.85,11.22-15.94c4.78-4.08,10.45-7.06,16.99-8.93c6.53-1.87,13.55-2.8,21.02-2.8c7.24,0,14.07,0.93,20.5,2.8
		c6.43,1.87,12.08,4.91,16.99,9.11c4.91,4.2,8.76,9.58,11.57,16.12c2.8,6.54,4.2,14.49,4.2,23.83v9.11h-30.84v-9.11
		c0-7.47-2.22-13.14-6.65-16.99C799.73,129.52,794.48,127.58,788.41,127.58z"/>
	<path class="st5" d="M812.38,370.85l-1.09-2.5c11.23-4.92,30.07-4.97,30.87-4.97v2.74C841.97,366.11,823.09,366.17,812.38,370.85z"
		/>
	<path class="st5" d="M827.27,373.59l-0.53-2.69c7.04-1.38,15.09-1.39,15.43-1.39v2.74C842.08,372.24,834.03,372.26,827.27,373.59z"
		/>
	<path class="st1" d="M734.65,383.11c30.49,0,46.51-7.4,60.64-13.93c12.66-5.85,23.6-10.9,46.87-10.9v-32.85
		c-30.49,0-46.51,7.4-60.64,13.93c-12.66,5.85-23.6,10.9-46.87,10.9V383.11z"/>
	<g>
		<path class="st5" d="M734.65,345.15v-2.74c0.19,0,19.07-0.05,29.77-4.74l1.09,2.5C754.29,345.1,735.44,345.15,734.65,345.15z"/>
		<path class="st5" d="M734.65,339.03v-2.74c0.09,0,8.13-0.02,14.9-1.35l0.53,2.69C743.04,339.02,734.99,339.03,734.65,339.03z"/>
	</g>
	<g>
		<path class="st1" d="M111.17,381.38h-10.6v-94.69l10.6-3.49V381.38z"/>
		<path class="st1" d="M154.9,364.76c0,2.89-0.47,5.48-1.39,7.76s-2.19,4.21-3.8,5.77c-1.6,1.56-3.51,2.76-5.72,3.55
			c-2.2,0.81-4.56,1.22-7.05,1.22c-2.57,0-4.94-0.41-7.1-1.22c-2.17-0.79-4.06-1.99-5.67-3.55c-1.6-1.56-2.87-3.49-3.8-5.77
			c-0.92-2.29-1.38-4.88-1.38-7.76v-40.12c0-2.89,0.46-5.43,1.38-7.66c0.93-2.2,2.21-4.06,3.86-5.58c1.65-1.54,3.59-2.67,5.84-3.44
			c2.25-0.77,4.66-1.13,7.23-1.13c2.49,0,4.83,0.41,7.05,1.26c2.2,0.83,4.16,2.07,5.84,3.72c1.69,1.65,3.02,3.66,3.98,6.03
			c0.96,2.37,1.44,5.11,1.44,8.26c0,4.98-0.5,9.15-1.51,12.51c-1.01,3.38-2.55,6.35-4.63,8.92c-2.1,2.57-4.78,4.9-8.07,6.99
			c-3.29,2.07-7.23,4.3-11.81,6.63v3.61c0,2.48,0.66,4.38,1.99,5.71c1.33,1.33,3.11,1.99,5.36,1.99c2.09,0,3.82-0.66,5.19-1.99
			c1.36-1.33,2.04-3.23,2.04-5.71v-1.22l10.73-3.49V364.76z M145.02,326.69c0-3.7-0.77-6.27-2.29-7.72
			c-1.53-1.43-3.34-2.16-5.42-2.16c-2.17,0-4,0.66-5.48,1.99c-1.5,1.33-2.23,3.27-2.23,5.84v24.81c3.21-1.52,5.83-3.02,7.83-4.51
			c2.01-1.48,3.57-3.1,4.71-4.88c1.12-1.78,1.88-3.74,2.29-5.9C144.81,331.99,145.02,329.49,145.02,326.69z"/>
		<path class="st1" d="M199.7,362.81c0,2.65-0.37,5.2-1.14,7.59c-0.76,2.42-1.92,4.56-3.49,6.46c-1.57,1.88-3.54,3.38-5.9,4.51
			c-2.37,1.11-5.21,1.69-8.49,1.69c-2.74,0-5.23-0.45-7.47-1.33c-2.25-0.9-4.19-2.14-5.84-3.74c-1.65-1.6-2.91-3.53-3.8-5.77
			c-0.89-2.25-1.33-4.75-1.33-7.46v-5.07l10.6,2.29v2.78c0,2.31,0.73,4.19,2.17,5.58c1.44,1.41,3.34,2.12,5.67,2.12
			c5.45,0,8.18-2.57,8.18-7.7c0-1.95-0.24-3.57-0.72-4.9c-0.48-1.33-1.17-2.55-2.05-3.66c-1.28-1.45-2.64-2.78-4.1-3.98
			c-1.44-1.22-2.91-2.42-4.4-3.61c-1.49-1.2-2.95-2.46-4.4-3.74s-2.81-2.67-4.1-4.21c-1.76-2.07-3.19-4.41-4.28-6.99
			c-1.08-2.57-1.63-5.54-1.63-8.9c0-2.65,0.44-5.09,1.33-7.29c0.89-2.2,2.13-4.11,3.73-5.67c1.6-1.56,3.52-2.78,5.72-3.68
			c2.21-0.88,4.64-1.3,7.29-1.3c5.54,0,9.8,1.65,12.77,4.92c2.97,3.29,4.46,7.59,4.46,12.9v5.07l-10.36-2.42v-2.65
			c0-2.42-0.66-4.32-1.99-5.71c-1.33-1.41-3.07-2.12-5.24-2.12c-2.25,0-4,0.73-5.24,2.16c-1.24,1.45-1.87,3.42-1.87,5.9
			c0,2.82,0.89,5.35,2.65,7.59c1.76,2.25,3.89,4.43,6.38,6.5c2.49,2.1,5.04,4.23,7.66,6.46c2.6,2.2,4.75,4.66,6.44,7.4
			c0.89,1.45,1.57,3.04,2.05,4.75C199.47,359.3,199.7,361.06,199.7,362.81z"/>
	</g>
	<path class="st5" d="M920.43,169.69c2.46-1.59,5.35-3.51,8.68-5.74c3.33-2.24,6.5-4.92,9.54-8.03c3.04-3.11,5.6-6.61,7.7-10.51
		c2.1-3.9,3.14-8.31,3.14-13.23c0-5.49-1.22-9.75-3.69-12.79c-2.45-3.04-6-4.55-10.62-4.55c-5.06,0-8.79,1.73-11.17,5.2
		c-2.38,3.47-3.58,7.52-3.58,12.14V169.69z"/>
</g>
</svg>
